Name,Sex,Event,Equipment,Age,Division,BodyweightKg,WeightClassKg,Squat1Kg,Squat2Kg,Squat3Kg,Squat4Kg,Best3SquatKg,Bench1Kg,Bench2Kg,Bench3Kg,Bench4Kg,Best3BenchKg,Deadlift1Kg,Deadlift2Kg,Deadlift3Kg,Deadlift4Kg,Best3DeadliftKg,TotalKg,Country,Place
Christina McDowell,F,B,Multi-ply,45,M2,72,75,,,,,,127.5,137.5,-142.5,,137.5,,,,,,137.5,USA,1
Pavel Balážik,M,B,Multi-ply,36,O,52.1,56,,,,,,82.5,87.5,90,-92.5,90,,,,,,90,Slovakia,1
Aleksander Deblandre,M,B,Multi-ply,41,M1,66.9,67.5,,,,,,122.5,127.5,130,,130,,,,,,130,France,1
Gary Bobrovitz,M,B,Multi-ply,63,M5,66.2,67.5,,,,,,132.5,140,142.5,145,142.5,,,,,,142.5,Canada,1
Saša Antić,M,B,Multi-ply,43,M1,74.2,75,,,,,,120,-150,150,,150,,,,,,150,Serbia,1
Vincent Riglet,M,B,Multi-ply,24,O,82.5,82.5,,,,,,160,-190,-190,,160,,,,,,160,France,1
Frédéric Parmentier,M,B,Multi-ply,39,O,79.6,82.5,,,,,,120,130,-140,,130,,,,,,130,France,2
John Dieter,M,B,Multi-ply,59,M4,76.5,82.5,,,,,,-130,140,-150,,140,,,,,,140,France,1
Milou Lazrey,M,B,Multi-ply,67,M6,79.4,82.5,,,,,,85,100,,,100,,,,,,100,France,1
Fabrice Logli,M,B,Multi-ply,25,O,89.5,90,,,,,,-150,160,165,,165,,,,,,165,France,1
Dalibor Ilijić,M,B,Multi-ply,37,O,89.7,90,,,,,,-260,-265,-270,,,,,,,,,Serbia,DQ
Daniel Sánchez,M,B,Multi-ply,41,M1,87.5,90,,,,,,220,235,255.5,-260,255.5,,,,,,255.5,Argentina,1
Stanislav Pryakhin,M,B,Multi-ply,40,M1,83.2,90,,,,,,170,,,,170,,,,,,170,Russia,2
Luc Grandjean,M,B,Multi-ply,49,M2,87.4,90,,,,,,140,-147.5,147.5,,147.5,,,,,,147.5,France,2
Milija Antić,M,B,Multi-ply,45,M2,89.4,90,,,,,,120,160,170,,170,,,,,,170,Serbia,1
Helmut Nebelung,M,B,Multi-ply,71,M7,83.8,90,,,,,,95,100,105,,105,,,,,,105,Germany,1
Viktor Mistratov,M,B,Multi-ply,34,O,99.8,100,,,,,,270,285,-300,,285,,,,,,285,Russia,1
David Velička,M,B,Multi-ply,38,O,97.8,100,,,,,,250,260,,,260,,,,,,260,Czechia,2
Michel Logli,M,B,Multi-ply,49,O,98.4,100,,,,,,-200,,,,,,,,,,,France,DQ
Aaron Rubin,M,B,Multi-ply,41,M1,94.1,100,,,,,,215,-225,-227.5,,215,,,,,,215,Canada,1
Stéphane Sana,M,B,Multi-ply,40,M1,99.2,100,,,,,,180,-200,-200,,180,,,,,,180,France,2
Valeriy Akentyev,M,B,Multi-ply,57,M4,100,100,,,,,,235,250,-255,,250,,,,,,250,Russia,1
Sergey Starodubskiy,M,B,Multi-ply,37,O,108.7,110,,,,,,275,-290,-300,,275,,,,,,275,Russia,1
Dominique Dufour,M,B,Multi-ply,33,O,102,110,,,,,,180,200,205,,205,,,,,,205,France,2
Brian King,M,B,Multi-ply,44,M1,108.7,110,,,,,,-255,-265,,,,,,,,,,USA,DQ
Richard Riso,M,B,Multi-ply,45,M2,109.7,110,,,,,,-230,-230,230,-265.5,230,,,,,,230,France,1
Uwe Eckert,M,B,Multi-ply,57,M4,102.5,110,,,,,,180,,,,180,,,,,,180,Germany,1
Rob Carbo,M,B,Multi-ply,60,M5,106.8,110,,,,,,-217.5,-217.5,-217.5,,,,,,,,,USA,DQ
Ján Velgos,M,B,Multi-ply,14,T1,114.2,125,,,,,,185,195,201,203,201,,,,,,201,Slovakia,1
Anton Begalko,M,B,Multi-ply,28,O,114.9,125,,,,,,-380,-390,390,-400,390,,,,,,390,Russia,1
Alexey Fedyayev,M,B,Multi-ply,,O,111.1,125,,,,,,250,260,-280,,260,,,,,,260,Kazakhstan,2
Dmitry Bubnov,M,B,Multi-ply,41,M1,124.3,125,,,,,,280,302.5,-322.5,,302.5,,,,,,302.5,Russia,1
Jani Toivo Kristian Ihalainen,M,B,Multi-ply,40,M1,118.1,125,,,,,,200,225,,,225,,,,,,225,Finland,2
Grant Sandow,M,B,Multi-ply,53,M3,115.8,125,,,,,,185,195,205,,205,,,,,,205,Australia,1
Ric Duncan,M,B,Multi-ply,62,M5,120.8,125,,,,,,265,277.5,-290,290,277.5,,,,,,277.5,USA,1
Josef Hakl,M,B,Multi-ply,65,M6,114.1,125,,,,,,185,195,-200,,195,,,,,,195,Czechia,1
Eric Freeman,M,B,Multi-ply,45,M2,129.5,140,,,,,,230,245,260,,260,,,,,,260,USA,1
Tim Moon,M,B,Multi-ply,51,M3,129.7,140,,,,,,337.5,-372.5,-372.5,,337.5,,,,,,337.5,USA,1
Alvin Belfield,M,B,Multi-ply,52,M3,135.9,140,,,,,,212.5,217.5,227.5,,227.5,,,,,,227.5,USA,2
Matt Houser #1,M,B,Multi-ply,31,O,142.2,140+,,,,,,-387.5,-400,400,,400,,,,,,400,USA,1
Freyded Rankyn Bejerano,M,B,Multi-ply,39,O,193.9,140+,,,,,,240,-260,-260,,240,,,,,,240,Spain,2
Mohand Benikken,M,B,Multi-ply,32,O,171.2,140+,,,,,,180,200,-230,,200,,,,,,200,France,3
Lauryane Beauchais,F,B,Raw,26,O,46.8,48,,,,,,62.5,-67.5,-67.5,,62.5,,,,,,62.5,France,1
Autumn Ware,F,B,Raw,17,T2,51.3,52,,,,,,27.5,32.5,-37.5,,32.5,,,,,,32.5,USA,1
Lill Bianchi,F,B,Raw,31,O,50.7,52,,,,,,-50,50,-55,,50,,,,,,50,South Africa,1
Melody Wissekerke,F,B,Raw,42,O,54.9,56,,,,,,80,82.5,85,-87.5,85,,,,,,85,USA,1
Alicia Calogero,F,B,Raw,35,O,54.5,56,,,,,,65,72.5,75,,75,,,,,,75,USA,2
Neea Räisänen,F,B,Raw,21,J,59.5,60,,,,,,75.5,,,,75.5,,,,,,75.5,Finland,1
Erika Worger,F,B,Raw,35,O,58.2,60,,,,,,62.5,70,-77.5,,70,,,,,,70,Canada,1
Mariel Betona,F,B,Raw,41,M1,58.9,60,,,,,,-90,90,95,,95,,,,,,95,Argentina,1
Anais Greer,F,B,Raw,26,O,64.5,67.5,,,,,,55,60,-65,,60,,,,,,60,Canada,1
Keola Westcott,F,B,Raw,32,O,63.3,67.5,,,,,,42.5,45,47.5,,47.5,,,,,,47.5,Australia,2
Stephanie Braz,F,B,Raw,24,O,64.9,67.5,,,,,,47.5,-52.5,-52.5,,47.5,,,,,,47.5,USA,3
DeLeigh Haley,F,B,Raw,44,M1,66.7,67.5,,,,,,55,-62.5,62.5,,62.5,,,,,,62.5,USA,1
Lydie Pons,F,B,Raw,64,M5,66.3,67.5,,,,,,65,70,73,-75,73,,,,,,73,France,1
Courtney Johnston,F,B,Raw,34,O,73.4,75,,,,,,62.5,65,-67.5,,65,,,,,,65,Canada,1
Leticia Bertotto,F,B,Raw,43,M1,74.3,75,,,,,,90,97.5,-100,,97.5,,,,,,97.5,Argentina,1
Kelly Berard,F,B,Raw,46,M2,73.2,75,,,,,,67.5,72.5,-77.5,,72.5,,,,,,72.5,USA,1
Aida Agüero,F,B,Raw,53,M3,67.8,75,,,,,,125,135,140,,140,,,,,,140,Argentina,1
Monica Johnston,F,B,Raw,65,M6,72.1,75,,,,,,37.5,40,41,,41,,,,,,41,Canada,1
Belinda Azzopardi,F,B,Raw,42,M1,81.2,82.5,,,,,,55,60,-65,,60,,,,,,60,Australia,1
Kim Welcher,F,B,Raw,50,M3,78,82.5,,,,,,85,-90,90,-92.5,90,,,,,,90,USA,1
Ursula Eulenstein,F,B,Raw,66,M6,80.1,82.5,,,,,,70,72.5,75,77.5,75,,,,,,75,Germany,1
Minna Pajulahti,F,B,Raw,34,O,87.9,90,,,,,,95,102.5,,,102.5,,,,,,102.5,Finland,1
Mariela Ortellado,F,B,Raw,30,O,93.3,90+,,,,,,80,90,95,,95,,,,,,95,Argentina,1
Liane Sabourin,F,B,Raw,40,M1,158.3,90+,,,,,,105,115,120,125,120,,,,,,120,Canada,1
Colleen Fitzpatrick,F,B,Raw,44,M1,132.8,90+,,,,,,102.5,110,117.5,-122.5,117.5,,,,,,117.5,Canada,2
Ylander Ross,F,B,Raw,48,M2,102.2,90+,,,,,,65,72.5,87.5,-88.5,87.5,,,,,,87.5,USA,1
Ruth Burke,F,B,Raw,49,M2,98.2,90+,,,,,,40,,,,40,,,,,,40,Ireland,2
Pavel Balážik,M,B,Raw,36,O,51.3,52,,,,,,82.5,87.5,90,-92.5,90,,,,,,90,Slovakia,1
Aleksander Deblandre,M,B,Raw,41,M1,66.4,67.5,,,,,,110,-115,-115,,110,,,,,,110,France,1
Patrik Tomáš,M,B,Raw,19,T3,74.9,75,,,,,,-130,130,-137.5,,130,,,,,,130,Czechia,1
Josh Nicholas,M,B,Raw,23,J,74.1,75,,,,,,155,165,-170,-170,165,,,,,,165,UK,1
Lukáš Vašíček,M,B,Raw,20,J,73.3,75,,,,,,100,110,130,,130,,,,,,130,Czechia,2
Kevin Preauchat,M,B,Raw,30,O,74,75,,,,,,122.5,127.5,-132.5,,127.5,,,,,,127.5,France,1
Jared Nemeth,M,B,Raw,24,O,71.4,75,,,,,,115,122.5,-130,,122.5,,,,,,122.5,Canada,2
Boshko Stamenkovski,M,B,Raw,44,M1,71.6,75,,,,,,120,125,130,,130,,,,,,130,North Macedonia,1
Guylehm Feraud,M,B,Raw,70,M7,73.5,75,,,,,,105,112.5,117.5,,117.5,,,,,,117.5,France,1
Gerard Lindas,M,B,Raw,79,M8,71.2,75,,,,,,98,102.5,105,-107.5,105,,,,,,105,USA,1
Seán Hehir,M,B,Raw,17,T2,81.7,82.5,,,,,,-140,-140,-140,,,,,,,,,Ireland,DQ
Vladyslav Fedorenko,M,B,Raw,22,J,82.1,82.5,,,,,,120,132.5,-140,,132.5,,,,,,132.5,Ukraine,1
Cedric Changivy,M,B,Raw,36,O,81.5,82.5,,,,,,145,155,162.5,,162.5,,,,,,162.5,France,1
Frédéric Parmentier,M,B,Raw,39,O,80.2,82.5,,,,,,120,-130,-130,,120,,,,,,120,France,2
John Rubio,M,B,Raw,51,M3,79.7,82.5,,,,,,140,145,-147.5,,145,,,,,,145,USA,1
Colin Mullaney,M,B,Raw,56,M4,80.1,82.5,,,,,,112.5,120,122.5,,122.5,,,,,,122.5,Canada,1
József Németh,M,B,Raw,57,M4,75.8,82.5,,,,,,110,115,117.5,,117.5,,,,,,117.5,Hungary,2
John Dieter,M,B,Raw,59,M4,77.1,82.5,,,,,,110,115,-120,,115,,,,,,115,France,3
Milou Lazreg,M,B,Raw,67,M6,78.6,82.5,,,,,,85,90,-100,,90,,,,,,90,France,1
Birchmans Pereira,M,B,Raw,69,M6,80.7,82.5,,,,,,-40,,,,,,,,,,,Canada,DQ
Ed Angstrom,M,B,Raw,74,M7,80.9,82.5,,,,,,120,130.5,-135,,130.5,,,,,,130.5,USA,1
Brandon Snowder,M,B,Raw,27,O,89.2,90,,,,,,180,192.5,205,,205,,,,,,205,USA,1
Robert Kanclerz,M,B,Raw,37,O,89.3,90,,,,,,180,-190,190,-208,190,,,,,,190,Poland,2
Scott Kimble,M,B,Raw,28,O,88.7,90,,,,,,170,-180,-180,,170,,,,,,170,South Africa,3
Marcos Flores,M,B,Raw,27,O,87,90,,,,,,150,-160,160,,160,,,,,,160,Argentina,4
Wylie Sung,M,B,Raw,28,O,89.2,90,,,,,,135,142.5,150,,150,,,,,,150,UK,5
Thierry le Roy,M,B,Raw,42,M1,86.9,90,,,,,,140,145,150,,150,,,,,,150,France,1
Robert Tomáš,M,B,Raw,42,M1,83.9,90,,,,,,130,137.5,145,,145,,,,,,145,Czechia,2
Rafael Leonardo Silva,M,B,Raw,45,M2,83.6,90,,,,,,130,140,155,,155,,,,,,155,Argentina,1
Chris Hatley,M,B,Raw,50,M3,87.4,90,,,,,,130,140,-150,,140,,,,,,140,USA,1
Joachim Eulenstein,M,B,Raw,68,M6,88,90,,,,,,135,140,,,140,,,,,,140,Germany,1
Helmut Nebelung,M,B,Raw,71,M7,85.1,90,,,,,,100,-107.5,107.5,,107.5,,,,,,107.5,Germany,1
Benjamin Jones,M,B,Raw,23,J,94.7,100,,,,,,182.5,190,-197.5,,190,,,,,,190,USA,1
David St. Romain,M,B,Raw,25,O,97,100,,,,,,210,220,227.5,,227.5,,,,,,227.5,USA,1
Matthias Maines,M,B,Raw,25,O,99.6,100,,,,,,195,-205,205,,205,,,,,,205,USA,2
Jeffrey Ziehmer,M,B,Raw,37,O,97.6,100,,,,,,200,-205,-205,,200,,,,,,200,USA,3
Brett Worland,M,B,Raw,24,O,99.4,100,,,,,,195,-202.5,-202.5,,195,,,,,,195,USA,4
Mikko Korpeinen,M,B,Raw,34,O,97.3,100,,,,,,150,155,-160,,155,,,,,,155,Finland,5
Ricky Moore,M,B,Raw,35,O,98.8,100,,,,,,,,,,,,,,,,,UK,DQ
David Fiori,M,B,Raw,40,M1,98.1,100,,,,,,160,170,-177.5,,170,,,,,,170,USA,1
Dmitrii Nikanorov,M,B,Raw,43,M1,94.4,100,,,,,,152.5,-157.5,-160,,152.5,,,,,,152.5,Russia,2
Mirosław Borkowski,M,B,Raw,52,M3,98.1,100,,,,,,125,132.5,140,,140,,,,,,140,Poland,1
Franciszek Szabluk,M,B,Raw,58,M4,95.3,100,,,,,,160,167.5,-175,,167.5,,,,,,167.5,Poland,1
Valeriy Akentyev,M,B,Raw,57,M4,99.3,100,,,,,,160,167.5,-175,,167.5,,,,,,167.5,Russia,2
Petr Nosek,M,B,Raw,56,M4,99.1,100,,,,,,115,120,125,,125,,,,,,125,Czechia,3
Vladimir Svobodo,M,B,Raw,63,M5,94.7,100,,,,,,115,125,130,,130,,,,,,130,Czechia,1
Marc Assirelli,M,B,Raw,67,M6,95.3,100,,,,,,130,135,137.5,,137.5,,,,,,137.5,France,1
Ibraqim Ilkhasan,M,B,Raw,26,O,105.6,110,,,,,,220,230,240,253,240,,,,,,240,Russia,1
David Hall,M,B,Raw,36,O,109.4,110,,,,,,205,215,-227.5,,215,,,,,,215,USA,2
Arthur Jozwiak,M,B,Raw,37,O,105.6,110,,,,,,200,207.5,-215,,207.5,,,,,,207.5,Poland,3
Normunds Kačānovs,M,B,Raw,35,O,108.1,110,,,,,,200,-205,-210,,200,,,,,,200,Latvia,4
Steve Hampton,M,B,Raw,46,M2,102.2,110,,,,,,150,160,-162.5,,160,,,,,,160,New Zealand,2
Sean Blackburn,M,B,Raw,47,M2,104.8,110,,,,,,-172.5,182.5,190,,190,,,,,,190,UK,1
Roger Walters,M,B,Raw,53,M3,105.7,110,,,,,,160,170,180,,180,,,,,,180,USA,2
Igor Lebedev,M,B,Raw,53,M3,103.6,110,,,,,,195,205,208,212,208,,,,,,208,Russia,1
Uwe Eckert,M,B,Raw,57,M4,102,110,,,,,,165,175,-182.5,,175,,,,,,175,Germany,1
Romuald Massé,M,B,Raw,23,J,123.4,125,,,,,,210,220,-232.5,,220,,,,,,220,France,1
Alex Zerba,M,B,Raw,28,O,121.7,125,,,,,,155,165,177.5,,177.5,,,,,,177.5,Australia,1
Mariks Daugavets,M,B,Raw,44,M1,122.5,125,,,,,,170,205,215,,215,,,,,,215,Latvia,1
Mark Lawford,M,B,Raw,41,M1,122.7,125,,,,,,175,182.5,-187.5,,182.5,,,,,,182.5,UK,2
Grant Sandow,M,B,Raw,53,M3,116.1,125,,,,,,162.5,170,177.5,,177.5,,,,,,177.5,Australia,1
Vasily Chernyshenko,M,B,Raw,53,M3,112.4,125,,,,,,127.5,135,140,,140,,,,,,140,Russia,2
Josef Hakl,M,B,Raw,65,M6,113.8,125,,,,,,155,-162.5,-162.5,,155,,,,,,155,Czechia,1
Scott Munroe,M,B,Raw,26,O,138.6,140,,,,,,215,227.5,235,,235,,,,,,235,UK,1
Marek Pivovarnik,M,B,Raw,30,O,127.6,140,,,,,,160,172.5,-180,,172.5,,,,,,172.5,Slovakia,2
Timothy Agnew,M,B,Raw,28,O,139.3,140,,,,,,115,-160,-160,,115,,,,,,115,Canada,3
Peter Diethalm,M,B,Raw,41,M1,128.6,140,,,,,,205,215,-220,,215,,,,,,215,Switzerland,1
Oleksii Lisogor,M,B,Raw,29,O,154.6,140+,,,,,,200,,,,200,,,,,,200,Ukraine,1
Henry Mincey,M,B,Raw,45,M2,170.6,140+,,,,,,185,240,-242.5,,240,,,,,,240,USA,1
Dominika Heráková,F,SBD,Wraps,17,T2,46.9,48,65,75,-77.5,,75,37.5,40,41,,41,65,-75,76,,76,192,Czechia,1
Crystal Grimsen,F,SBD,Wraps,27,O,47.4,48,80,-87.5,87.5,,87.5,52.5,57.5,-60,,57.5,110,117.5,122.5,,122.5,267.5,Canada,1
Sabine Guillaume,F,SBD,Wraps,51,M3,47.5,48,90,102.5,107.5,,107.5,52.5,57.5,-60,,57.5,120,135,,,135,300,France,1
Autumn Ware,F,SBD,Wraps,17,T2,51.2,52,-72.5,72.5,-80,,72.5,32.5,-40,-40,,32.5,77.5,-92.5,-92.5,,77.5,182.5,USA,2
Hope DeMaranville,F,SBD,Wraps,17,T2,49.1,52,72.5,77.5,-82.5,,77.5,35,-42.5,-42.5,,35,82.5,90,95,,95,207.5,USA,1
Melissa Byrd Smith,F,SBD,Wraps,40,M1,52,52,62.5,72.5,-82.5,,72.5,25,27.5,32.5,,32.5,90,102.5,110,,110,215,USA,2
Laura Manca,F,SBD,Wraps,25,O,51.9,52,115,122.5,-127.5,,122.5,50,55,-57.5,,55,115,122.5,130,,130,307.5,UK,2
Taryn Madeley,F,SBD,Wraps,24,O,51.5,52,107.5,-117.5,117.5,,117.5,65,70,-72.5,,70,125,132.5,137.5,,137.5,325,Australia,1
Belinda Ryder,F,SBD,Wraps,44,M1,51.6,52,112.5,-122.5,-122.5,,112.5,57.5,-62.5,-62.5,,57.5,130,-137.5,137.5,,137.5,307.5,Australia,1
Lyndsay Cunningham,F,SBD,Wraps,58,M4,53.9,56,55,60,65,70,65,40,42.5,-45,,42.5,80,85,90,-100,90,197.5,New Zealand,1
Silvia Daniela Silva,F,SBD,Wraps,46,M2,55.2,56,70,-80,80,,80,45,50,-55,,50,80,90,100,,100,230,Argentina,1
Anna Liubarska,F,SBD,Wraps,15,T1,53.6,56,80,-90,-95,,80,50,55.5,-57.5,,55.5,80.5,-90,,,80.5,216,Ukraine,1
Samantha Snowder,F,SBD,Wraps,27,O,55.4,56,80,95,100,,100,35,47.5,-52.5,,47.5,102.5,115,-125,,115,262.5,USA,4
Slávka Ratvajská,F,SBD,Wraps,41,M1,54.5,56,102.5,-110,110,,110,52.5,-57.5,57.5,,57.5,105,120,127.5,,127.5,295,Slovakia,2
Brandy Holloman,F,SBD,Wraps,41,M1,54.8,56,100,-120,-120,,100,65,77.5,-82.5,,77.5,115,125,140,,140,317.5,USA,1
Laura Sgro,F,SBD,Wraps,24,O,54.1,56,143,152.5,160,167.5,160,90,95,-100,,95,122.5,135,-140,,135,390,Australia,2
Jen Smith #1,F,SBD,Wraps,21,J,55.8,56,122.5,130,-137.5,,130,75,80,-85,,80,135,140,-145,,140,350,Australia,2
Ashleigh Marais,F,SBD,Wraps,21,J,56,56,120,130,140,,140,75,80,90,,90,140,160,170.5,,170.5,400.5,South Africa,1
Emma Lane,F,SBD,Wraps,33,O,55.4,56,135,-142.5,142.5,,142.5,55,60,62.5,,62.5,145,155,-160,,155,360,UK,3
Emily Hu #1,F,SBD,Raw,33,O,54.9,56,115,125,-130,,125,97.5,105,113,113.5,113,155,170,175,177.5,175,413,USA,1
Sevasti Anastasiadis,F,SBD,Wraps,16,O,60,60,90,-100,-100,,90,45,50,-52.5,,50,110,120,125,,125,265,Australia,8
Gemma Parkin,F,SBD,Wraps,30,O,60,60,75,87.5,95,,95,42.5,47.5,-52.5,,47.5,115,120,-127.5,,120,262.5,UK,9
Annjanette Saunders,F,SBD,Wraps,45,M2,59.5,60,100,107.5,-115,,107.5,55,60,-65,,60,120,130,140,151,140,307.5,UK,1
Alison Booker,F,SBD,Wraps,28,O,59.6,60,110,120,125,,125,-80,80,-85,,80,120,130,-135,,130,335,UK,4
Debbie McAlpine,F,SBD,Wraps,38,O,60,60,-117.5,-127.5,127.5,,127.5,55,-60,-60,,55,120,130,-135,,130,312.5,South Africa,5
Hannah Anderson,F,SBD,Wraps,30,O,58.8,60,85,90,-97.5,,90,45,50,55,,55,130,140,150,,150,295,UK,7
Neea Räisänen,F,SBD,Wraps,21,J,59.9,60,115,122.5,-130,,122.5,72.5,77.5,-82.5,,77.5,135,145,-152.5,,145,345,Finland,2
Heather Bell,F,SBD,Wraps,36,O,59,60,92.5,100,-105,,100,55,57.5,60,,60,137.5,140,-152.5,,140,300,Canada,6
Sara Devlin,F,SBD,Wraps,28,O,58.5,60,-112.5,112.5,125,,125,55,-60,60,,60,137.5,147.5,155,,155,340,USA,3
Mariel Bertona,F,SBD,Wraps,41,M1,58.8,60,120,142.5,147.5,,147.5,90,95,-97.5,,95,140,155,-165,,155,397.5,Argentina,1
Kayla Morelan,F,SBD,Wraps,23,J,59.6,60,157.5,-175,-182.5,,157.5,80,87.5,90,,90,145,157.5,165,,165,412.5,USA,1
Vicki Jewson,F,SBD,Wraps,43,O,59.8,60,120,130,-140,,130,65,70,72.5,,72.5,150,160,-170,,160,362.5,Australia,2
Emmy Louise,F,SBD,Wraps,31,O,58.9,60,135,150,155,,155,80,85,88,,88,160,170,175.5,,175.5,418.5,UK,1
Deb Ellard,F,SBD,Wraps,56,M4,65.5,67.5,95,100,105,,105,57.5,60,-62.5,,60,110,115,120,125,120,285,Canada,1
Heather B Ashworth,F,SBD,Wraps,17,T2,67,67.5,115,-125,-125,,115,75,80,82.5,,82.5,145,155,-165,-165,155,352.5,USA,1
Chelsey Lampros,F,SBD,Wraps,23,J,66.1,67.5,152.5,162.5,-170,,162.5,85,92.5,95,,95,150,160,167.5,172.5,167.5,425,USA,1
Dominique Reed,F,SBD,Wraps,25,O,67.3,67.5,-117.5,120,125,,125,65,67.5,70,,70,-120,-120,-120,,,,UK,DQ
Kimberlee Brewer,F,SBD,Wraps,22,J,67.1,67.5,100,110,-120,,110,62.5,70,-72.5,,70,125,135,-142.5,,135,315,New Zealand,4
Anna Matteson,F,SBD,Wraps,29,O,66.6,67.5,-122.5,122.5,-137.5,,122.5,62.5,65,-70,,65,125,137.5,145,,145,332.5,USA,3
Zoe Bibbings,F,SBD,Wraps,43,M1,67.2,67.5,155,165,170,,170,65,70,-75,,70,145,-152.5,-152.5,,145,385,South Africa,1
Brittany Dewald,F,SBD,Wraps,23,J,65.4,67.5,130,142.5,-152.5,,142.5,55,60,62.5,,62.5,-140,147.5,155,,155,360,Canada,2
Dominique Thistleton,F,SBD,Wraps,29,O,67.4,67.5,-140,-140,140,,140,70,-75,-77.5,,70,145,155,-165,,155,365,UK,2
Billa Hamilton,F,SBD,Wraps,28,O,67.5,67.5,165,175,182.5,,182.5,97.5,102.5,-107.5,,102.5,170,182.5,190,,190,475,Australia,1
Elisha Santucci,F,SBD,Wraps,22,J,64.3,67.5,115,122.5,130,,130,67.5,75,-80,,75,140,142.5,,,142.5,347.5,USA,3
Sonja Stefanie Krüger,F,SBD,Wraps,48,M2,64.3,67.5,-90,97.5,-105,,97.5,62.5,-67.5,-67.5,,62.5,80,,,,80,240,South Africa,1
DeLeigh Haley,F,SBD,Wraps,44,M1,67.5,67.5,65,,,,65,55,,,,55,100,,,,100,220,USA,2
Kelly Berard,F,SBD,Wraps,46,M2,74,75,-92.5,-97.5,97.5,,97.5,72.5,76,77.5,,77.5,137.5,145,152.5,160,152.5,327.5,USA,1
Krystal Gagen,F,SBD,Wraps,24,O,68,75,90,100,105,,105,45,50,52.5,,52.5,90,100,107.5,,107.5,265,Australia,6
Eleisha Rogers,F,SBD,Wraps,25,O,72.1,75,100,110,-117.5,,110,45,50,-55,,50,115,122.5,-130,,122.5,282.5,Australia,5
Caitlin Ross,F,SBD,Wraps,22,J,72.5,75,115,122.5,-130,,122.5,55,60,-65,,60,117.5,127.5,-135,,127.5,310,Australia,1
Merryn Armstrong,F,SBD,Wraps,27,O,74.2,75,140,155,165,,165,67.5,72.5,75,,75,140,155,162.5,,162.5,402.5,Australia,1
Jodi Cupp,F,SBD,Wraps,43,M1,72.5,75,130,142.5,-152.5,,142.5,-70,70,82.5,,82.5,150,160,-167.5,,160,385,USA,3
Jennifer Hamburger,F,SBD,Wraps,43,M1,73.9,75,155,165,-175,,165,95,102.5,-110,-110,102.5,160,170,180,,180,447.5,USA,2
Cassandra Garcilaso,F,SBD,Wraps,24,O,73.3,75,130,140,-145,,140,77.5,-80,-80,,77.5,167.5,177.5,-182.5,,177.5,395,USA,2
Leticia Bertotto,F,SBD,Wraps,43,M1,74,75,-155,155,165,,165,90,100,-102.5,,100,170,180,185,,185,450,Argentina,1
Jaime Krumins,F,SBD,Wraps,30,O,74.2,75,130,-135,-135,,130,60,67.5,,,67.5,182.5,190,-195,,190,387.5,Canada,3
Monica Johnston,F,SBD,Wraps,65,M6,71.4,75,30,,,,30,37.5,40,,,40,60,65,,,65,135,Canada,1
Aida Agüero,F,SBD,Wraps,53,M3,68,75,-185,185,-195,,185,125,-135,135,-140,135,180,-190,,,180,500,Argentina,1
Courtney Johnston,F,SBD,Wraps,34,O,72.8,75,117.5,126,,,126,65,-70.5,,,65,140,,,,140,331,Canada,4
Jana Vašková,F,SBD,Wraps,21,J,79.6,82.5,165,175,-183,,175,95,103,105,,105,185,197.5,207.5,210.5,207.5,487.5,Slovakia,1
Belinda Azzopardi,F,SBD,Wraps,42,M1,80.9,82.5,90,105,-120,,105,55,-62.5,-62.5,,55,125,130,135,,135,295,Australia,1
Kim Welcher,F,SBD,Wraps,50,M3,79.7,82.5,120,127.5,-137.5,,127.5,85,87.5,-92.5,,87.5,137.5,142.5,-147.5,,142.5,357.5,USA,2
Meggan Hunott,F,SBD,Wraps,26,O,80.5,82.5,135,142.5,147.5,,147.5,70,80,-85,,80,145,160,167.5,,167.5,395,USA,7
Loria Fry,F,SBD,Wraps,51,M3,76.4,82.5,117.5,-125,125,,125,92.5,102.5,-107.5,,102.5,145,170,-175,,170,397.5,USA,1
Larnah Lowe,F,SBD,Wraps,30,O,81.2,82.5,165,-175,180,,180,70,77.5,-80,,77.5,160,170,177.5,,177.5,435,Australia,6
Nichola Diaz,F,SBD,Wraps,32,O,80.6,82.5,157.5,167.5,175,,175,87.5,95,100,,100,172.5,-180,180,,180,455,USA,4
Court Paapu,F,SBD,Wraps,32,O,82.4,82.5,170,182.5,-190,,182.5,92.5,100,105,,105,160,172.5,192.5,,192.5,480,New Zealand,3
Lezelle van Vuuren,F,SBD,Wraps,33,O,76.5,82.5,150,160,-170,,160,90,95,-100,,95,180,190,-200,,190,445,South Africa,5
Tania George,F,SBD,Wraps,45,O,79.9,82.5,167.5,-182.5,-182.5,,167.5,105,112.5,115,,115,185,195,206,,206,488.5,UK,2
Stella Krupinski,F,SBD,Wraps,53,O,78.8,82.5,205,-220,220,,220,95,102.5,107.5,,107.5,197.5,210,-220,,210,537.5,USA,1
Anna McCloskey,F,SBD,Wraps,22,J,81.7,82.5,170,-182.5,-182.5,,170,90,95,-100,,95,200,210,-223,,210,475,USA,2
Robin Micheli,F,SBD,Wraps,19,T3,80.5,82.5,150,-160,182.5,,182.5,85,92.5,-95,,92.5,150,-160,,,150,425,USA,1
Marie Metcalf,F,SBD,Wraps,67,M6,86.9,90,50,60,,,60,50,-52.5,-52.5,-52.5,50,92.5,100,105,-110,105,215,USA,1
Shelly Yates,F,SBD,Wraps,40,M1,88.4,90,140,152.5,-167.5,,152.5,55,67.5,72.5,75,72.5,137.5,150,157.5,165,157.5,382.5,USA,1
Hanne Bingle,F,SBD,Wraps,56,M4,85.5,90,100,107.5,120,,120,80,-90,90,,90,115,125.5,130,,130,340,UK,1
Tania Traylor,F,SBD,Wraps,45,M2,88.6,90,115,144,-154,,144,72.5,87.5,-92.5,,87.5,142.5,161,-165,,161,392.5,USA,1
Suzie Maude,F,SBD,Wraps,39,O,89,90,160,170,-180,,170,55,-62.5,62.5,,62.5,155,-165,-165,,155,387.5,Australia,5
Minna Pajulahti,F,SBD,Wraps,34,O,88.7,90,147.5,157.5,167.5,,167.5,115,118,120,-123,120,170,185,192.5,,192.5,480,Finland,2
Nicole Fox,F,SBD,Wraps,26,O,89.1,90,137.5,145,150,,150,85,92.5,95,,95,182.5,192.5,-200,,192.5,437.5,USA,4
Macy Armstrong,F,SBD,Wraps,29,O,88.3,90,192.5,-205,205,210,205,102.5,110,120,-125,120,185,192.5,-202.5,,192.5,517.5,USA,1
Rebecca Buckley,F,SBD,Wraps,29,O,89.1,90,170,177.5,-182.5,,177.5,85,92.5,-95,,92.5,187.5,197.5,-205,,197.5,467.5,Australia,3
Tricia Bernstein,F,SBD,Wraps,64,M5,94.8,90+,-52.5,52.5,62.5,,62.5,37.5,42.5,45,,45,-85,85,107.5,,107.5,215,USA,1
Kathy Wilbanks,F,SBD,Wraps,52,M3,133.6,90+,62.5,65,-80,,65,47.5,-52.5,52.5,,52.5,85,102.5,107.5,,107.5,225,USA,1
Audrey Poffenroth,F,SBD,Wraps,45,M2,99.7,90+,92.5,102.5,107.5,,107.5,55,60,-65,,60,110,130,135,,135,302.5,Canada,2
Ruth Burke,F,SBD,Wraps,49,M2,98,90+,-110,-110,110,,110,50,57.5,-62.5,,57.5,120,130,-135,,130,297.5,Ireland,3
Jeanne Hardy,F,SBD,Wraps,43,M1,113.5,90+,-142.5,142.5,-160,,142.5,80,82.5,90,,90,122.5,127.5,137.5,,137.5,370,USA,3
Amanda Metcalf,F,SBD,Wraps,35,O,116.2,90+,122.5,140,145,,145,77.5,85,-92.5,,85,-142.5,150,155,,155,385,USA,3
Lizzy Nevins,F,SBD,Wraps,20,J,95,90+,132.5,145,-155,-160,145,60,67.5,-72.5,,67.5,140,150,-157.5,,150,362.5,Australia,1
Colleen Fitzpatrick,F,SBD,Wraps,44,M1,132.9,90+,127.5,-130,130,,130,102.5,112.5,117.5,-120.5,117.5,150,160,-165,,160,407.5,Canada,2
Tamara Martin,F,SBD,Wraps,45,M2,129,90+,130,-145,152.5,,152.5,62.5,65,67.5,,67.5,152.5,160,172.5,,172.5,392.5,USA,1
Kristin Wykoff,F,SBD,Wraps,24,O,137.5,90+,165,180,-195,,180,72.5,77.5,85,,85,167.5,180,-192.5,,180,445,USA,2
Nicola Polley,F,SBD,Wraps,40,M1,104.1,90+,160,170,175,,175,67.5,72.5,-75,,72.5,185,192.5,200,,200,447.5,UK,1
Mariela Ortellado,F,SBD,Wraps,30,O,93,90+,175,190,200,,200,80,95,-107.5,,95,180,200.5,210,,210,505,Argentina,1
Whit Baker,M,SBD,Wraps,13,T1,55,56,82.5,92.5,-100,,92.5,47.5,57.5,-60,,57.5,127.5,140,-145,,140,290,USA,1
Gus De Verteuil,M,SBD,Wraps,24,O,59.2,60,145,155,-170,,155,95,100,110,,110,185,195,-205,,195,460,UK,1
Michael Holt,M,SBD,Wraps,19,T3,66.3,67.5,192.5,215,227.5,,227.5,125,142.5,-147.5,,142.5,185,200,212.5,217.5,212.5,582.5,USA,1
Stephen Le Sage,M,SBD,Wraps,21,J,66.6,67.5,167.5,175,182.5,,182.5,130,137.5,-142.5,,137.5,207.5,215,227.5,,227.5,547.5,USA,1
Jarrid-Leigh Muller,M,SBD,Wraps,20,J,66.9,67.5,172.5,192.5,200,,200,112.5,125,130,,130,210,-237.5,-240,,210,540,South Africa,2
Callan Hayward,M,SBD,Wraps,27,O,67.5,67.5,215,225,232.5,,232.5,150,157.5,161,,161,225,235,-240,,235,628.5,Australia,1
Miroslav Andreáš,M,SBD,Wraps,27,O,65.5,67.5,150,165,-170,,165,90,100,-105,,100,160,180,182.5,,182.5,447.5,Czechia,2
Abdelkader Hocini,M,SBD,Wraps,26,O,65.9,67.5,100,117.5,-132.5,,117.5,100,110,-120,,110,160,172.5,180,,180,407.5,France,3
Cole Lavergne,M,SBD,Wraps,32,O,66.6,67.5,-170,-185,-185,,,120,130,-137.5,,130,215,225,227.5,,227.5,,USA,DQ
Franklin Cupido,M,SBD,Wraps,40,M1,67.2,67.5,160,175,-185,-185,175,90,100,-105,,100,200,215,220,,220,495,South Africa,1
Burkhard Steffen,M,SBD,Wraps,65,M6,66.8,67.5,135,145,150,,150,80,85,90,,90,135,145,155,,155,395,Germany,1
Neel Devnarain,M,SBD,Wraps,17,T2,72.4,75,135,-145,150,,150,90,100,105,,105,160,180,-190,,180,435,South Africa,1
Axel Ravinet,M,SBD,Wraps,18,T3,75,75,-185,-185,185,,185,122.5,130,-135,,130,185,200,-207.5,,200,515,France,1
Cooper Dacus,M,SBD,Wraps,18,T3,74.2,75,-185,-187.5,-220.5,,,110,-125,-125,,110,175,190,-202.5,,190,,USA,DQ
Simon Williams #1,M,SBD,Wraps,22,J,72.6,75,250,-260,-260,,250,155,162.5,-167.5,,162.5,240,255,-266,,255,667.5,UK,1
Willie Fourie,M,SBD,Wraps,20,J,74.9,75,240,-255,-255,-255,240,135,140,145,,145,250,265,270,-275,270,655,South Africa,2
Jordan Brown,M,SBD,Wraps,23,J,74.8,75,230,-245,-245,,230,150,160,-165,-165,160,240,255,-260,,255,645,Australia,3
Cameron Preymack,M,SBD,Wraps,20,J,72.7,75,227.5,242.5,-253,-253,242.5,132.5,142.5,-165,,142.5,227.5,242.5,-262.5,,242.5,627.5,Canada,4
Blake Reiman,M,SBD,Wraps,23,J,70.9,75,185,195,-205,,195,125,132.5,137.5,,137.5,215,230,-242.5,,230,562.5,USA,5
Lukáš Vašíček,M,SBD,Wraps,20,J,72.5,75,170,-185,-190,,170,120,130,-140,,130,180,200,-210,,200,500,Czechia,6
Vladimir Zhadenov,M,SBD,Wraps,28,O,74.6,75,250,270,292.5,,292.5,175,185,-190,,185,230,250,-270,,250,727.5,Russia,1
Ronald Tarvin,M,SBD,Wraps,26,O,74.4,75,235,247.5,260,,260,152.5,165,-167.5,,165,240,260,275,,275,700,USA,2
Kev Stuart,M,SBD,Wraps,37,O,75,75,210,220,230,,230,160,170,-180,,170,225,245,260,,260,660,UK,3
Nick Hardy,M,SBD,Wraps,28,O,74.6,75,220,-240,-240,,220,135,150,-155,,150,250,272.5,-277.5,,272.5,642.5,USA,4
Andrew Smith #2,M,SBD,Wraps,25,O,74.3,75,210,220,227.5,,227.5,132.5,-137.5,-137.5,,132.5,240,245,250,,250,610,UK,5
Dhiren Dunraj,M,SBD,Wraps,27,O,72.1,75,200,215,-225,,215,140,-150,-150,,140,-220,230,-245,,230,585,New Zealand,6
Les Grills,M,SBD,Wraps,27,O,74.8,75,235,255,-270,,255,170,177.5,-182.5,,177.5,67.5,,,,67.5,500,Australia,7
Adriano DaCosta,M,SBD,Wraps,52,M3,70.8,75,200,230,-260,,230,100,120,,,120,210,222.5,-230,,222.5,572.5,France,1
Sejfo Šehović,M,SBD,Wraps,56,M4,72.2,75,160,170,-180,,170,100,-110,,,100,200,220,230,,230,500,Bosnia and Herzegovina,1
Jean Palicot,M,SBD,Wraps,62,M5,74.2,75,125,-135,,,125,75,80,-85,,80,150,-162.5,,,150,355,France,1
Bill Healy,M,SBD,Wraps,65,M6,73.7,75,-195,195,-213,,195,132.5,137.5,-141,,137.5,210,,,,210,542.5,Ireland,1
Guylhem Feraud,M,SBD,Wraps,70,M7,72.7,75,115,-125,-125,,115,105,112.5,-117.5,,112.5,160,167.5,175,-180,175,402.5,France,1
Jimmy Ross,M,SBD,Wraps,70,M7,72.7,75,112.5,117.5,122.5,,122.5,-80,-80,80,,80,155,162.5,-170,,162.5,365,USA,2
Seán Hehir,M,SBD,Wraps,17,T2,81.3,82.5,-160,165,-170,,165,-130,132.5,-137.5,,132.5,180,-190,190,,190,487.5,Ireland,1
Fergus Crawley,M,SBD,Wraps,19,T3,81.3,82.5,-200,200,215,,215,110,117.5,125,,125,200,220,227.5,,227.5,567.5,UK,1
Aaron Mitchell,M,SBD,Wraps,23,J,82.2,82.5,247.5,255,-260,,255,-137.5,-140,142.5,,142.5,262.5,275,290,,290,687.5,USA,1
Francesco Catalano,M,SBD,Wraps,23,J,82.2,82.5,220,-237.5,240,,240,160,175,-180,,175,250,270,-277.5,,270,685,Canada,2
Ezequiel Fernandez Uguet,M,SBD,Wraps,22,J,79.2,82.5,-215,-215,215,,215,-115,120,130,,130,220,235,240,,240,585,Argentina,3
Dean Piggott,M,SBD,Wraps,21,J,81.5,82.5,205,-215,,,205,130,137.5,-142.5,,137.5,225,-240,,,225,567.5,UK,4
Eldene Smith,M,SBD,Wraps,30,O,82.5,82.5,240,255,270,,270,160,172.5,180,,180,270,290,307.5,,307.5,757.5,Australia,1
Larry Dyles,M,SBD,Wraps,32,O,81.6,82.5,245,-260,272.5,,272.5,160,170,182.5,,182.5,250,-272.5,-272.5,,250,705,USA,2
Danny Lane,M,SBD,Wraps,36,O,81.2,82.5,240,250,255,,255,150,157.5,162.5,,162.5,267.5,-280,-282.5,,267.5,685,UK,3
Leighton Ashford,M,SBD,Wraps,38,O,81.9,82.5,255,267.5,277.5,,277.5,125,135,-142.5,,135,255,270,-275,,270,682.5,UK,4
Nick Stefanou,M,SBD,Wraps,24,O,81.7,82.5,250,270,282.5,,282.5,120,,,,120,250,260,270,,270,672.5,South Africa,5
Lee Powell,M,SBD,Wraps,31,O,81.6,82.5,-215,215,-235,,215,125,132.5,137.5,,137.5,250,275,-285,,275,627.5,Canada,6
Glen Smith #1,M,SBD,Wraps,29,O,81.4,82.5,-200,-200,200,,200,140,-147.5,-147.5,,140,180,,,,180,520,UK,7
Frédéric Parmentier,M,SBD,Wraps,39,O,80.2,82.5,200,220,-225,,220,120,-125,125,,125,-200,-200,-200,,,,UK,DQ
Alan Glen,M,SBD,Wraps,41,M1,82.1,82.5,230,240,-250,,240,155,-165,-165,,155,240,250,-260,,250,645,USA,1
Ian Humphreys,M,SBD,Wraps,44,M1,79.1,82.5,225,245,260,271,260,130,140,147.5,,147.5,220,235,-247.5,,235,642.5,UK,2
Duane Bull,M,SBD,Wraps,44,M1,80.9,82.5,-225,-225,-225,,,125,135,140,,140,260,-272.5,,,260,,Canada,DQ
Robert Mantovani,M,SBD,Wraps,46,M2,80.4,82.5,200,212.5,217.5,,217.5,145,150,-155,,150,200,210,220,,220,587.5,USA,1
Paul George,M,SBD,Wraps,53,M3,81.1,82.5,230,260,,,260,130,135,140,-141,140,230,276,,,276,676,UK,1
Colin Mullaney,M,SBD,Wraps,56,M4,81.3,82.5,175,-182.5,182.5,,182.5,125,132.5,-138,,132.5,180,192.5,200,,200,515,Canada,1
John Dieter,M,SBD,Wraps,59,M4,77.2,82.5,150,165,,,165,110,117.5,120,,120,200,213,220,,220,505,France,2
Mark Hobneck,M,SBD,Wraps,56,M4,81.2,82.5,145,167.5,182.5,,182.5,110,127.5,-137.5,,127.5,147.5,-170,,,147.5,457.5,USA,3
Birchmans Pereira,M,SBD,Wraps,69,M6,81.1,82.5,150,172.5,181,,181,27.5,,,,27.5,-185,195,200,228,200,408.5,Canada,1
Draik Morgan,M,SBD,Wraps,16,T2,82.6,90,165,175,-182.5,,175,85,92.5,-100,,92.5,175,185,205,,205,472.5,USA,1
Nikita Jevdokimovs,M,SBD,Wraps,17,T2,84.8,90,120,130,145,,145,85,95,100,,100,155,160,165,,165,410,Latvia,2
Nick Ramey,M,SBD,Wraps,23,J,89.8,90,317.5,-332.5,-332.5,,317.5,-185,185,-190,,185,310,327.5,-340,,327.5,830,USA,1
Dayle Longford,M,SBD,Wraps,27,O,89.9,90,-275,-275,275,-305.5,275,165,175,180,,180,300,310,318,,318,773,UK,1
Joey Huneycutt,M,SBD,Wraps,34,O,88.7,90,237.5,260,280,,280,185,195,202.5,205,202.5,250,267.5,275,,275,757.5,USA,2
Chris Ramos #2,M,SBD,Wraps,29,O,90,90,-305,305,-311,-311,305,162.5,172.5,-180,,172.5,267.5,277.5,-295,,277.5,755,USA,3
George Kattan,M,SBD,Wraps,24,O,86.9,90,280,-282.5,,,280,170,180,-182.5,,180,280,290,-300,,290,750,South Africa,4
Jason Sciacca #1,M,SBD,Wraps,36,O,89.1,90,250,265,275,,275,145,-152.5,-152.5,,145,250,262.5,275,,275,695,Australia,5
Christian Diaz,M,SBD,Wraps,32,O,90,90,247.5,260,-267.5,,260,152.5,-160,-160,,152.5,247.5,260,-267.5,,260,672.5,USA,6
Andrew Merrit,M,SBD,Wraps,28,O,89,90,197.5,210,-225,,210,142.5,147.5,-150,,147.5,227.5,240,250,,250,607.5,USA,7
Kevin Platt,M,SBD,Wraps,27,O,87.4,90,190,205,-220,,205,132.5,145,-152.5,,145,215,-232.5,-232.5,,215,565,USA,8
Chris Jenkins #7,M,SBD,Wraps,35,O,89.7,90,277.5,292.5,-300,,292.5,165,-172.5,,,165,,,,,,,UK,DQ
Imad Bahria,M,SBD,Wraps,40,M1,89.2,90,255,275,280,285,280,135,140,-145,,140,295,305,-310,,305,725,France,1
Daniel Sánchez,M,SBD,Wraps,41,M1,89,90,-275,275,-300,,275,145,165,172.5,,172.5,225,-267.5,,,225,672.5,Argentina,2
Thierry le Roy,M,SBD,Wraps,42,M1,86.3,90,190,205,215,,215,140,150,-157.5,,150,230,240,-245,,240,605,France,3
Ivan Giňovský,M,SBD,Wraps,48,M2,90,90,215,227.5,235.5,,235.5,120,130,135,,135,210,217.5,230,,230,600.5,Slovakia,1
James Berza,M,SBD,Wraps,48,M2,87.8,90,180,192.5,205,,205,142.5,152.5,-160,,152.5,210,227.5,240,,240,597.5,USA,2
Gérard Ivars,M,SBD,Wraps,49,M2,88.2,90,210,220,-235,,220,110,115,-117.5,,115,210,-220,,,210,545,France,3
Robert Harvey,M,SBD,Wraps,49,M2,90,90,-180,190,197.5,,197.5,135,142.5,145,,145,180,190,-197.5,,190,532.5,USA,4
Peter Herák,M,SBD,Wraps,54,M3,86.2,90,190,210,225,-235.5,225,110,115,117.5,,117.5,210,225,230.5,,230.5,573,Slovakia,1
David Madeley,M,SBD,Wraps,54,M3,89.1,90,170,-185,185,,185,110,122.5,-127.5,,122.5,210,225,-232.5,,225,532.5,Australia,2
Michal Červinka,M,SBD,Wraps,55,M4,89.1,90,185,200,-215,,200,105,112.5,-120,,112.5,180,200,-210,,200,512.5,Slovakia,1
Vlastimil Šafařík,M,SBD,Wraps,16,T2,92.9,100,190,205,215,,215,120,130,-135,,130,190,205,-220,,205,550,Czechia,1
Nicholas Weir,M,SBD,Wraps,21,J,99.5,100,237.5,257.5,265,,265,162.5,175,182.5,,182.5,260,,,,260,707.5,Australia,1
Bobby Purser,M,SBD,Wraps,23,J,99.4,100,265,287.5,-295,,287.5,150,165,-177.5,,165,247.5,-262.5,-262.5,,247.5,700,USA,2
Oleg Gevko,M,SBD,Wraps,24,O,99.5,100,305,320,,,320,190,200,205,,205,307.5,327.5,-335,,327.5,852.5,Russia,1
Curtis McDonald,M,SBD,Wraps,27,O,98.8,100,307.5,325,335,,335,190,200,-205,,200,295,-315,-320,,295,830,Canada,2
Mohammed Dangor,M,SBD,Wraps,24,O,99.6,100,280,300,315,,315,180,190,195,,195,300,320,-325,,320,830,South Africa,3
Kevin Dickhut,M,SBD,Wraps,33,O,98.8,100,-285,-285,285,,285,185,-195,-195,,185,325,-332.5,-332.5,,325,795,USA,4
Thomas Lilley,M,SBD,Wraps,26,O,99.4,100,-285,285,-302.5,,285,170,180,-187.5,,180,290,310,-325,,310,775,Australia,5
Jordan Grimes,M,SBD,Wraps,27,O,99.8,100,260,280,-300,,280,160,172.5,-180,,172.5,280,-305,305,,305,757.5,UK,6
Dave Breker,M,SBD,Wraps,34,O,98.8,100,275,282.5,-300,,282.5,211,220,-227.5,,220,215,240,,,240,742.5,Canada,7
Rusty Bordelon,M,SBD,Wraps,30,O,98.6,100,215,230,237.5,,237.5,175,185,190,,190,265,280,295,,295,722.5,USA,8
Mathew Le Roux,M,SBD,Wraps,24,O,98.4,100,250,-290,-300,,250,150,160,-165,,160,290,310,,,310,720,South Africa,9
Scott Wasson,M,SBD,Wraps,28,O,95.3,100,250,272.5,282.5,,282.5,100,110,117.5,,117.5,300,-325,,,300,700,Australia,10
Kurt Patrick,M,SBD,Wraps,28,O,90.1,100,230,245,-255,,245,120,130,-137.5,,130,220,230,240,,240,615,Australia,11
Greg Kruger,M,SBD,Wraps,38,O,98.8,100,205,-235,-235,,205,-150,150,-155,,150,240,-255,-255,,240,595,South Africa,12
Damian Rohrlach,M,SBD,Wraps,32,O,99.8,100,200,220,235,,235,120,130,137.5,,137.5,200,215,222.5,,222.5,595,Australia,13
Rodrigo Sanchez,M,SBD,Wraps,44,M1,91.7,100,200,220,230,,230,140,150,160,,160,240,250,255,,255,645,Argentina,1
Fabrice Benchabane,M,SBD,Wraps,44,M1,95.7,100,-200,210,217.5,,217.5,130,140,-145,,140,245,-257.5,-257.5,,245,602.5,France,2
Louis Demetriades,M,SBD,Wraps,42,M1,97.1,100,187.5,200,207.5,,207.5,125,130,-135,,130,200,212.5,222.5,,222.5,560,USA,3
Steve Hampton,M,SBD,Wraps,46,M2,99.8,100,-215,215,235,,235,145,155,160,,160,220,245,255,,255,650,New Zealand,1
Leoš Herák,M,SBD,Wraps,46,M2,97.1,100,180,-200,210,,210,135,145,-150,,145,190,210,220,,220,575,Czechia,2
Bob Pfaller,M,SBD,Wraps,51,M3,98.9,100,182.5,192.5,202.5,,202.5,142.5,155,165,,165,185,197.5,205,,205,572.5,USA,1
Luboš Halenkovský,M,SBD,Wraps,55,M4,97.4,100,140,150,-160,,150,100,115,117.5,,117.5,170,190,205,,205,472.5,Czechia,1
Petr Nosek,M,SBD,Wraps,56,M4,98.2,100,135,145,150,,150,115,120,125,,125,165,180,197.5,,197.5,472.5,Czechia,2
Colin Foulser,M,SBD,Wraps,60,M5,92.4,100,165,205,,,205,110,117.5,122.5,,122.5,205,255,275,,275,602.5,UK,1
Vladimir Svobodo,M,SBD,Wraps,63,M5,95.3,100,150,170,180,,180,115,125,130,,130,160,180,195,,195,505,Czechia,2
Ben Hooten,M,SBD,Wraps,61,M5,95.1,100,137.5,145,-150,,145,87.5,-95,-95,,87.5,177.5,187.5,-197.5,,187.5,420,USA,3
Herbert Czeplinski,M,SBD,Wraps,16,T2,107.6,110,230,-242.5,255,,255,160,172.5,185,,185,230,245,260,,260,700,Germany,1
Jason Lay,M,SBD,Wraps,18,T3,108.4,110,180,190,-200,,190,115,120,-125,,120,200,210,,,210,520,Australia,1
Geoffrey Stanford,M,SBD,Wraps,23,J,109.5,110,-302.5,-302.5,302.5,,302.5,177.5,187.5,-195,,187.5,297.5,310,-320,,310,800,USA,1
Paul Wright #1,M,SBD,Wraps,22,J,109.9,110,277.5,290,-300,,290,155,170,-175,,170,260,272.5,280,,280,740,UK,3
Cruz Fondriest,M,SBD,Wraps,23,J,102.1,110,257.5,272.5,-282.5,,272.5,177.5,195,-200,,195,245,262.5,272.5,,272.5,740,USA,2
Austin Pagani,M,SBD,Wraps,20,J,106.6,110,225,250,260,,260,170,-182.5,,,170,290,305,-317.5,,305,735,USA,4
Marc Barnes,M,SBD,Wraps,20,J,107.1,110,280,295,-302.5,,295,-135,140,-145,,140,250,260,-272.5,,260,695,UK,5
David Jenkinson,M,SBD,Wraps,27,O,109.1,110,325,350,-362.5,,350,227.5,240,-247.5,,240,330,350,-362.5,,350,940,UK,1
Delroy McQueen,M,SBD,Wraps,39,O,109,110,340,360,-370,,360,170,180,182.5,,182.5,330,350,370.5,,370.5,913,UK,2
Jesse Taylor,M,SBD,Wraps,32,O,106.6,110,282.5,297.5,-307.5,,297.5,237.5,245,-250,250,245,287.5,305,,,305,847.5,USA,3
Fitim Xhemajlaj,M,SBD,Wraps,26,O,107.8,110,230,247.5,262.5,,262.5,170,182.5,187.5,,187.5,240,262.5,270,,270,720,Australia,4
David Cross,M,SBD,Wraps,35,O,108.4,110,210,230,245,,245,135,150,-155,,150,250,270,-280,,270,665,South Africa,5
Drew Spriggs,M,SBD,Wraps,26,O,109.9,110,200,207.5,-215,,207.5,127.5,135,-140,,135,200,-220,220,,220,562.5,Australia,6
Joey Botter,M,SBD,Wraps,39,O,105.5,110,227.5,-250,,,227.5,165,-175,,,165,70,,,,70,462.5,USA,7
Patrick Mendes,M,SBD,Wraps,25,O,109.9,110,-275,,,,,,,,,,,,,,,,USA,DQ
Tom McEnirney,M,SBD,Wraps,29,O,108.4,110,285,305,,,305,185,200,-205,,200,-305,,,,,,New Zealand,DQ
Joe Vayda,M,SBD,Wraps,44,M1,102.1,110,220,242.5,257.5,,257.5,142.5,167.5,-182.5,,167.5,220,230,245,,245,670,USA,1
Gustavo Miño,M,SBD,Wraps,44,M1,101.1,110,200,220,-232.5,,220,140,-145,-145,,140,200,220,-230,,220,580,Argentina,2
Michal Šafařík,M,SBD,Wraps,48,M2,106.8,110,240,255,270,,270,145,155,162.5,,162.5,240,255,-270,,255,687.5,Czechia,1
Matt Fix,M,SBD,Wraps,47,M2,108.7,110,-205,205,225,,225,157.5,170.5,-182.5,-182.5,170.5,215,240,-252.5,,240,635.5,USA,2
Jan Kruger,M,SBD,Wraps,51,M3,109.3,110,-260,260,270,,270,175,185,-190,,185,275,295,302.5,,302.5,757.5,South Africa,1
Kirt Brace,M,SBD,Wraps,50,M3,108.5,110,-260,260,-280,280,260,205,-215,,,205,260,280,-290,,280,745,USA,2
Michael Martin,M,SBD,Wraps,51,M3,110,110,230,-257.5,-257.5,,230,130,142.5,-147.5,,142.5,225,245,-260,,245,617.5,Canada,3
Pavel Reichel,M,SBD,Wraps,51,M3,102.9,110,167.5,180,-190,,180,135,-142.5,-150,,135,210,220,230,,230,545,Czechia,4
Richard Adams #1,M,SBD,Wraps,57,M4,108.1,110,205,222.5,230,,230,110,117.5,122.5,,122.5,215,230,240,,240,592.5,USA,1
William VanSickle,M,SBD,Wraps,55,M4,105.8,110,170,182.5,192.5,,192.5,-122.5,122.5,,,122.5,205,215,227.5,,227.5,542.5,USA,2
Jim Hall,M,SBD,Wraps,72,M7,108.1,110,142.5,147.5,152.5,,152.5,147.5,152.5,-160,,152.5,-157.5,165,177.5,,177.5,482.5,USA,1
Kieran Chambers,M,SBD,Wraps,17,T2,110.8,125,205,210,220,,220,110,117.5,-122.5,,117.5,210,-215,,,210,547.5,UK,1
Matt Brooks #1,M,SBD,Wraps,19,T3,123.1,125,210,227.5,232.5,,232.5,125,-137.5,-137.5,,125,205,217.5,230,,230,587.5,USA,1
Jeff Cotter,M,SBD,Wraps,23,J,116,125,-365,365,,,365,227.5,-240,-240,,227.5,295,-317.5,-317.5,,295,887.5,USA,1
Jake Fisher,M,SBD,Wraps,23,J,119.6,125,270,,,,270,160,-170,170,,170,270,285,300,,300,740,Australia,2
Joe Ladnier,M,SBD,Wraps,51,O,124.3,125,327.5,347.5,,,347.5,-230,235,-240,,235,295,312.5,-327.5,,312.5,895,USA,1
Daniel Hurlin,M,SBD,Wraps,28,O,116.8,125,310,330,-340,,330,190,200,205,,205,280,300,-315,,300,835,South Africa,2
Yevheniy Pavlov,M,SBD,Wraps,29,O,121.5,125,320,335,345,-366,345,190,195,-200,,195,260,275,-290,,275,815,Ukraine,3
David Rock,M,SBD,Wraps,29,O,122.8,125,272.5,285,292.5,,292.5,175,185,-187.5,,185,272.5,-285,-285,,272.5,750,USA,4
Jeremiah Johnson #1,M,SBD,Wraps,32,O,118,125,250,-265,265,,265,-205,205,-225,,205,250,265,-272.5,,265,735,USA,5
Joseph O'Flanagan,M,SBD,Wraps,24,O,115.8,125,235,245,-255,,245,145,152.5,160,,160,265,-275,-275,,265,670,UK,6
Tim Rand,M,SBD,Wraps,27,O,121.8,125,210,230,-250,,230,150,-157.5,157.5,,157.5,220,240,252.5,,252.5,640,Australia,7
Gabriel Velasco,M,SBD,Wraps,29,O,120.8,125,-365,-365,-365,,,,,,,,,,,,,,USA,DQ
Ricky Goodyear,M,SBD,Wraps,40,M1,120.5,125,315,325,335,,335,200,-215,-215,,200,305,325,337.5,,337.5,872.5,Australia,1
William Morgan,M,SBD,Wraps,41,M1,119,125,240,260,275,,275,195,-210,217.5,,217.5,230,245,260,,260,752.5,USA,2
Jason Gillespie,M,SBD,Wraps,42,M1,123.9,125,250,270,280,,280,175,185,-195,,185,245,262.5,-272.5,,262.5,727.5,Australia,3
Marshall Green,M,SBD,Wraps,42,M1,121.7,125,227.5,237.5,250,,250,185,-192.5,-192.5,,185,227.5,-237.5,-237.5,,227.5,662.5,USA,4
Mark Lawford,M,SBD,Wraps,41,M1,122.9,125,185,195,205,,205,175,182.5,-187.5,,182.5,215,225,235,,235,622.5,UK,5
Jean Becourt,M,SBD,Wraps,45,M2,119.6,125,195,205,215,,215,162.5,170,175,,175,195,210,-215,,210,600,France,1
Danny Saelam Barrett,M,SBD,Wraps,14,T1,134,140,-210,220,232.5,,232.5,120,130,-135,,130,220,232.5,237.5,,237.5,600,Australia,1
Morocco Arnold,M,SBD,Wraps,20,J,138.1,140,275,-290,295,,295,185,195,-205,,195,282.5,300,-310,,300,790,USA,1
Matt Fryfogle,M,SBD,Wraps,32,O,132.5,140,332.5,-357.5,357.5,,357.5,222.5,237.5,245,,245,295,310,317.5,,317.5,920,USA,1
Jordan Lupul,M,SBD,Wraps,30,O,130.8,140,-335,-342.5,342.5,,342.5,185,195,-200,,195,320,-330,,,320,857.5,Canada,2
Marek Pivovarnik,M,SBD,Wraps,30,O,126.1,140,230,245,-250,,245,165,175,-180,,175,260,270,-280,,270,690,Slovakia,3
Steven Psaltis,M,SBD,Wraps,30,O,131,140,210,-230,230,,230,110,120,-125,,120,270,-290,-290,,270,620,Australia,4
Tim Agnew,M,SBD,Wraps,28,O,138.5,140,185,-250,-250,,185,-122.5,142.5,150,,150,180,-205,-205,,180,515,Canada,5
Elias Abner,M,SBD,Wraps,25,O,139.7,140,290,307.5,-317.5,,307.5,162.5,-170,-170,,162.5,-297.5,-317.5,-317.5,,,,USA,DQ
Miles Urias,M,SBD,Wraps,27,O,125.9,140,,,,,,,,,,,,,,,,,USA,DQ
Zane Ison,M,SBD,Wraps,47,M2,135.3,140,330,-350,-350,,330,160,170,-193,,170,290,305,-310,,305,805,South Africa,1
Cedric Woriax,M,SBD,Wraps,50,M3,129.3,140,-305,305,327.5,,327.5,210,220,-230,,220,260,272.5,280,,280,827.5,USA,1
Stephen Allison,M,SBD,Wraps,27,O,143.4,140+,285,300,-307.5,,300,145,155,162.5,,162.5,250,-265,265,,265,727.5,Australia,2
Kyle Rice,M,SBD,Wraps,31,O,143.5,140+,305,-327.5,327.5,,327.5,145,157.5,162.5,,162.5,245,262.5,282.5,,282.5,772.5,USA,1
Patrick Sobecke,M,SBD,Wraps,35,O,151,140+,-230,230,,,230,160,175,182.5,,182.5,230,-272.5,,,230,642.5,Australia,3
Sergey Yakovlev,M,SBD,Wraps,42,M1,162.5,140+,280,300,315,,315,190,202.5,210,,210,290,320,340,,340,865,Kazakhstan,1
Neea Räisänen,F,SBD,Multi-ply,22,J,60,60,130,140,150,165,150,80,85,87.5,,87.5,130,145,155,168,155,392.5,Finland,1
Maryana Soltanova,F,SBD,Multi-ply,30,O,69.2,75,125,135,145,,145,90,95,-100,,95,140,150,-160,,150,390,Ukraine,1
Anna McCloskey,F,SBD,Multi-ply,22,J,82.5,82.5,270,287.5,-295,,287.5,150,-167.5,-167.5,,150,207.5,217.5,-230,,217.5,655,USA,1
Jodie Reynolds,F,SBD,Multi-ply,53,M3,78.5,82.5,170,185,,,185,100,,,,100,150,-170,-170,,150,435,USA,1
Emily Knauth,F,SBD,Multi-ply,28,O,85.8,90,140,147.5,-155,,147.5,80,87.5,-95,,87.5,120,130,-135,,130,365,Australia,1
Jonathan Bar,M,SBD,Multi-ply,19,T3,58.6,60,135,142.5,-147.5,,142.5,85,90,-92.5,,90,165,172.5,-177.5,,172.5,405,France,1
John Dieter,M,SBD,Multi-ply,59,M4,59,60,180,-230,-230,,180,135,145,,,145,210,225,,,225,550,France,1
Gary Bobrovitz,M,SBD,Multi-ply,63,M5,64,67.5,172.5,188,-192.5,-192.5,188,132.5,135,140,142.5,140,165,172.5,177.5,-193,177.5,505.5,Canada,1
Tyrone McNamara,M,SBD,Multi-ply,26,O,74.8,75,260,-275,280,,280,160,170,180,,180,210,222.5,-227.5,,222.5,682.5,Ireland,1
Gary Reichert,M,SBD,Multi-ply,55,M4,71.1,75,205,232.5,,,232.5,-140,140,,,140,210,240,-262.5,,240,612.5,USA,1
Frazer Munnery,M,SBD,Multi-ply,23,O,80.8,82.5,290,310,325,,325,-200,200,-210,,200,250,275,-285,,275,800,UK,1
Frédéric Parmentier,M,SBD,Multi-ply,39,O,79.4,82.5,180,200,-220,,200,120,125,130,,130,160,180,-200,,180,510,France,2
Sean Baker,M,SBD,Multi-ply,44,M1,81.4,82.5,250,275,-290,,275,150,167.5,-187.5,,167.5,240,-255,,,240,682.5,USA,1
Mikhail Kislyanskikh,M,SBD,Multi-ply,40,M1,77.9,82.5,250,-270,-280,,250,-160,-160,-160,,,-220,,,,,,Russia,DQ
Gérard Dufour,M,SBD,Multi-ply,66,M6,77.1,82.5,150,170,180,,180,105,115,-120,,115,180,202.5,215,,215,510,France,1
Max Reichert,M,SBD,Multi-ply,18,T3,89.8,90,305,-320,-332.5,,305,215,-227.5,227.5,240,227.5,200,220,230,,230,762.5,USA,1
Daniel Sánchez,M,SBD,Multi-ply,41,O,89,90,320,350,360,,360,220,240,250,,250,230,272.5,290,,290,900,Argentina,1
Anthony Cross,M,SBD,Multi-ply,35,O,88,90,285,310,-322.5,,310,-175,175,185,,185,290,302.5,-312.5,,302.5,797.5,UK,2
Daniel Russell #2,M,SBD,Multi-ply,25,O,90,90,300,315,-325,,315,200,-210,210,,210,230,260,-290,,260,785,UK,3
Fabrice Logli,M,SBD,Multi-ply,25,O,89.4,90,230,250,-270,,250,180,200,-210,,200,240,-255,272.5,,272.5,722.5,France,4
Matthew Warr,M,SBD,Multi-ply,36,O,87.9,90,265,290,310,,310,142.5,150,157.5,,157.5,240,252.5,-265,,252.5,720,USA,5
Gérard Ivars,M,SBD,Multi-ply,49,M2,89.1,90,240,260,280,,280,140,155,-165,,155,215,225,-235,,225,660,France,1
John Hare,M,SBD,Multi-ply,54,M3,89.1,90,275,305,-320,,305,195,215,237.5,,237.5,235,255,275,,275,817.5,USA,1
Adrian Tucker,M,SBD,Multi-ply,53,M3,86.8,90,280,300,310,,310,180,190,195,,195,250,-275,-275,,250,755,UK,2
Michal Červinka,M,SBD,Multi-ply,55,M4,89.9,90,230,245,-260,,245,130,140,-150,,140,220,230,-240,,230,615,Slovakia,1
Martin Hurdálek,M,SBD,Multi-ply,37,O,96.5,100,300,-320,-320,,300,220,240,250,,250,220,240,250,,250,800,Czechia,1
Cameron Fields,M,SBD,Multi-ply,30,O,98.3,100,295,320,-327.5,,320,187.5,-205,-205,,187.5,250,275,285,,285,792.5,USA,2
Brandon McKee,M,SBD,Multi-ply,27,O,99.8,100,250,275,295,,295,175,185,195,,195,232.5,250,265,,265,755,USA,3
Dominique Dufour,M,SBD,Multi-ply,33,O,100,100,-310,-310,-310,,,,,,,,,,,,,,France,DQ
Marcos Martinez,M,SBD,Multi-ply,40,M1,98.1,100,150,,,,150,175,,,,175,150,,,,150,475,Argentina,1
Michel Logli,M,SBD,Multi-ply,49,M2,98.6,100,240,260,-270,,260,200,-220,-220,,200,220,240,-250,,240,700,France,1
Robert Graham #1,M,SBD,Multi-ply,50,M3,98.4,100,240,260,280,,280,145,152.5,160,,160,220,225,230,,230,670,UK,1
Libor Hurdálek,M,SBD,Multi-ply,61,M5,97.9,100,230,250,-260,,250,145,155,-165,,155,200,215,225,,225,630,Czechia,1
Rudy Kadlub,M,SBD,Multi-ply,66,M6,99.6,100,227.5,250,-272.5,,250,112.5,197.5,207.5,,207.5,205,-242.5,,,205,662.5,USA,1
Roy Eriksen,M,SBD,Multi-ply,72,M7,96.6,100,192.5,-207.5,220,,220,142.5,-160,-160,,142.5,175,185,192.5,,192.5,555,USA,1
Cole Morgan,M,SBD,Multi-ply,18,T3,104.6,110,-290,-300,310,,310,145,160,172.5,,172.5,230,-242.5,242.5,,242.5,725,USA,1
Jimmie Pacifico,M,SBD,Multi-ply,27,O,107.7,110,-377.5,377.5,-400,,377.5,292.5,310,315,,315,332.5,347.5,-352.5,,347.5,1040,USA,1
Chris Pappillion,M,SBD,Multi-ply,35,O,109.5,110,370,-400,400,,400,265,272.5,277.5,,277.5,307.5,-327.5,-365,,307.5,985,USA,2
Andrew Saunders,M,SBD,Multi-ply,48,M2,105.8,110,230,,,,230,230,,,,230,240,,,,240,700,UK,1
Adam Wade,M,SBD,Multi-ply,51,M3,105.2,110,300,320,330,,330,175,185,195,,195,260,275,285,,285,810,USA,1
Ján Velgos,M,SBD,Multi-ply,14,T1,110.8,125,225,235,250,,250,182.5,190,195,200,195,175,185,-190,,185,630,Slovakia,1
Seth Albersworth,M,SBD,Multi-ply,21,J,123.2,125,410,-435,-435,,410,250,,,,250,250,,,,250,910,Canada,1
Mike Webber,M,SBD,Multi-ply,45,M2,122.1,125,-420,420,-455,,420,275,-302.5,302.5,,302.5,280,305,-325,,305,1027.5,Canada,1
Frank Phillips #1,M,SBD,Multi-ply,46,M2,113.6,125,272.5,305,330,,330,195,215,222.5,,222.5,250,272.5,287.5,,287.5,840,USA,2
Eric Bar,M,SBD,Multi-ply,46,M2,123.8,125,245,255,-262.5,,255,225,-230,,,225,255,270,-275,,270,750,France,3
Gregg Damminga,M,SBD,Multi-ply,,M3,124.4,125,-290,-290,-290,,,,,,,,,,,,,,USA,DQ
Gary Emrich,M,SBD,Multi-ply,46,M2,135.4,140,307.5,317.5,337.5,,337.5,215,235,-245,,235,282.5,300,-317.5,,300,872.5,USA,1
Franck Loup,M,SBD,Multi-ply,47,M2,126.3,140,280,300,-320,,300,155,165,,,165,230,250,265,,265,730,France,2
Eddie Bustillos,M,SBD,Multi-ply,51,M3,130.4,140,-345,-345,-345,,,,,,,,,,,,,,USA,DQ
Chris Thompson,M,SBD,Multi-ply,42,M1,141.6,140+,-300,300,,,300,225,-240,240,,240,240,,,,240,780,USA,1
Autumn Ware,F,D,Raw,17,T2,51.3,52,,,,,,,,,,,72.5,77.5,82.5,,82.5,82.5,USA,1
Daniela Silva,F,D,Raw,46,M2,55,56,,,,,,,,,,,80,90,100,,100,100,Argentina,1
Hannah Anderson,F,D,Raw,30,O,55.2,56,,,,,,,,,,,130,137.5,145,-150,145,145,UK,1
Mariel Bertona,F,D,Raw,41,M1,58.9,60,,,,,,,,,,,145,155.5,-162.5,,155.5,155.5,Argentina,1
Neea Räisänen,F,D,Raw,21,J,59.5,60,,,,,,,,,,,130,,,,130,130,Finland,1
DeLeigh Haley,F,D,Raw,44,M1,66.7,67.5,,,,,,,,,,,102.5,112.5,122.5,,122.5,122.5,USA,1
Leticia Bertotto,F,D,Raw,43,M1,74.3,75,,,,,,,,,,,172.5,180,190,,190,190,Argentina,1
Kelly Berard,F,D,Raw,46,M2,73.2,75,,,,,,,,,,,125,137.5,145,,145,145,USA,1
Aida Agüero,F,D,Raw,54,M3,67.8,75,,,,,,,,,,,185,200,-205,,200,200,Argentina,1
Monica Johnston,F,D,Raw,65,M6,72.1,75,,,,,,,,,,,60,,,,60,60,Canada,1
Mariia Kalanina,F,D,Raw,33,O,74.6,75,,,,,,,,,,,175,-180,180,-192.5,180,180,Russia,1
Katy West,F,D,Raw,35,O,74.5,75,,,,,,,,,,,140,147.5,155,,155,155,UK,2
Courtney Johnston,F,D,Raw,34,O,73.4,75,,,,,,,,,,,150,-152.5,-155,,150,150,Canada,3
Belinda Azzopardi,F,D,Raw,42,M1,81.2,82.5,,,,,,,,,,,130,-145,-145,,130,130,Australia,1
Kim Welsher,F,D,Raw,50,M3,78,82.5,,,,,,,,,,,135,140,142.5,,142.5,142.5,USA,1
Minna Pajulahti,F,D,Raw,34,O,87.9,90,,,,,,,,,,,100,,,,100,100,Finland,1
Artemira Sobrinho,F,D,Raw,47,M2,,,,,,,,,,,,,,,,,,,Brazil,NS
Andressa Gomes de Lima,F,D,Raw,25,O,,,,,,,,,,,,,,,,,,,Brazil,NS
Ruth Burke,F,D,Raw,49,M2,98.2,90+,,,,,,,,,,,100,,,,100,100,Ireland,1
Mariela Ortellado,F,D,Raw,30,O,93.3,90+,,,,,,,,,,,170,190,205,,205,205,Argentina,1
Adriano DaCosta,M,D,Raw,52,M3,70.6,75,,,,,,,,,,,220,,,,220,220,France,1
Sejfo Šehović,M,D,Raw,56,M4,73.2,75,,,,,,,,,,,200,220,225,,225,225,Bosnia and Herzegovina,1
Hans Malchau,M,D,Raw,64,M5,74.6,75,,,,,,,,,,,125,130,-135,,130,130,Germany,1
Guylhem Feraud,M,D,Raw,70,M7,73.5,75,,,,,,,,,,,160,170,,,170,170,France,1
Jared Nemeth,M,D,Raw,24,O,71.4,75,,,,,,,,,,,122.5,140,152.5,,152.5,152.5,Canada,1
Luc Boisfer,M,D,Raw,40,M1,81.1,82.5,,,,,,,,,,,205,215,-225,,215,215,France,1
Marcelo Lobo,M,D,Raw,46,M2,81.5,82.5,,,,,,,,,,,215,230,245,,245,245,Argentina,1
John Dieter,M,D,Raw,59,M4,77.1,82.5,,,,,,,,,,,200,215,,,215,215,France,1
Colin Mullaney,M,D,Raw,56,M4,80.1,82.5,,,,,,,,,,,150,160,170,,170,170,Canada,2
Birchmans Pereira,M,D,Raw,69,M6,80.7,82.5,,,,,,,,,,,172.5,185,192.5,197.5,192.5,192.5,Canada,1
Chris Davey #2,M,D,Raw,32,O,80.6,82.5,,,,,,,,,,,225,235,-245,,235,235,Australia,1
Seán Hehir,M,D,Raw,17,T2,81.7,82.5,,,,,,,,,,,185,192.5,-200,,192.5,192.5,Ireland,1
Rodrigo Sanchez,M,D,Raw,44,M1,89.5,90,,,,,,,,,,,230,-240,242.5,250,242.5,242.5,Argentina,1
Thierry le Roy,M,D,Raw,42,M1,86.9,90,,,,,,,,,,,200,225,240,,240,240,France,2
Chris Hatley,M,D,Raw,49,M2,87.4,90,,,,,,,,,,,165,195,205,,205,205,USA,1
Peter Herák,M,D,Raw,54,M3,88.2,90,,,,,,,,,,,200,217.5,225,230,225,225,Slovakia,1
Wylie Sung,M,D,Raw,28,O,89.2,90,,,,,,,,,,,265,275,282.5,,282.5,282.5,UK,1
Victor Mancini Gomes Dick,M,D,Raw,17,T2,88.9,90,,,,,,,,,,,220,230,235,-240,235,235,Brazil,1
David Fiori,M,D,Raw,40,M1,98.1,100,,,,,,,,,,,235,245,255,,255,255,USA,1
Vadim Zaitsev,M,D,Raw,55,M4,92.6,100,,,,,,,,,,,230,250,,,250,250,Russia,1
Mikko Korpeinen,M,D,Raw,34,O,97.3,100,,,,,,,,,,,310,320,-325,,320,320,Finland,1
Jacob Kilgore,M,D,Raw,19,T3,92,100,,,,,,,,,,,250,272.5,282.5,-295,282.5,282.5,USA,1
Gustavo Miño,M,D,Raw,44,M1,101.1,110,,,,,,,,,,,200,220,,,220,220,Argentina,1
Roger Walters,M,D,Raw,53,M3,105.7,110,,,,,,,,,,,225,257.5,272.5,,272.5,272.5,USA,1
Robby Barker,M,D,Raw,38,O,106,110,,,,,,,,,,,300,310,320,-325,320,320,USA,1
Sergey Starodubskiy,M,D,Raw,37,O,108.9,110,,,,,,,,,,,275,-302.5,,,275,275,Russia,2
Travis Urschel,M,D,Raw,39,O,110,110,,,,,,,,,,,262.5,275,-287.5,,275,275,USA,3
Ľubomír Trstenský,M,D,Raw,40,M1,111,125,,,,,,,,,,,245,255,-262.5,,255,255,Slovakia,1
Sergey Tymchenko,M,D,Raw,45,M2,124.9,125,,,,,,,,,,,275,-290,,,275,275,Kazakhstan,1
Lee Marshall,M,D,Raw,56,M4,112.3,125,,,,,,,,,,,300,320,,,320,320,UK,1
Mikhail Grinko,M,D,Raw,37,O,111,125,,,,,,,,,,,250,280,,,280,280,Russia,1
Aleksandar Stanković,M,D,Raw,32,O,133.9,140,,,,,,,,,,,320,340,352.5,,352.5,352.5,Serbia,1
André Luiz de Souza,M,D,Raw,43,M1,,,,,,,,,,,,,,,,,,,Brazil,NS
Adriano DaCosta,M,D,Raw,52,M3,,,,,,,,,,,,,,,,,,,France,NS
Jordenor Henrique Nunes De Souza,M,D,Raw,22,J,,,,,,,,,,,,,,,,,,,Brazil,NS
Tomas Brabic,M,D,Raw,21,J,,,,,,,,,,,,,,,,,,,Czechia,NS
Aleksey Okunev,M,D,Raw,39,O,,,,,,,,,,,,,,,,,,,Russia,NS
Emilio Mansilla,M,D,Raw,31,O,,,,,,,,,,,,,,,,,,,Argentina,NS
Layla Balduino,F,D,Multi-ply,20,J,54.8,56,,,,,,,,,,,130,140,150,-160,150,150,Brazil,1
Francieli Alves de Andrade,F,D,Multi-ply,27,O,59.5,60,,,,,,,,,,,140,145,-150,-150,145,145,Brazil,1
Céline Corringer,F,D,Multi-ply,38,O,59.7,60,,,,,,,,,,,90,100,-110,110,100,100,France,2
Eliana Jaluska,F,D,Multi-ply,30,O,65.9,67.5,,,,,,,,,,,145,-150,-150,-150,145,145,Brazil,1
Guilherme De Lozzo Garbelini,M,D,Multi-ply,31,O,65.5,67.5,,,,,,,,,,,180,190,205,-205.5,205,205,Brazil,1
Jerome Latscha,M,D,Multi-ply,38,O,66.9,67.5,,,,,,,,,,,190,200,205,,205,205,France,2
Samuel Enzweiler Lopes,M,D,Multi-ply,29,O,74.3,75,,,,,,,,,,,170,185,190,,190,190,Brazil,1
Lee Powell,M,D,Multi-ply,31,O,81.3,82.5,,,,,,,,,,,250,265,280,,280,280,Canada,1
Luan De Oliveira France,M,D,Multi-ply,27,O,80.9,82.5,,,,,,,,,,,260,-265,-265.5,,260,260,Brazil,2
John Dieter,M,D,Multi-ply,59,M4,76.5,82.5,,,,,,,,,,,215,230,240,,240,240,France,1
Andre Romeiro Neumann,M,D,Multi-ply,34,O,89.5,90,,,,,,,,,,,300,-320,320,-340,320,320,Brazil,1
Imad Bahria,M,D,Multi-ply,40,M1,89.8,90,,,,,,,,,,,295,305,307.5,,307.5,307.5,France,1
Stanislav Pryakhin,M,D,Multi-ply,40,M1,83.2,90,,,,,,,,,,,230,,,,230,230,Russia,2
Milija Antić,M,D,Multi-ply,,M2,89.4,90,,,,,,,,,,,200,230,,,230,230,Serbia,1
Birchmans Pereira,M,D,Multi-ply,69,M6,83.4,90,,,,,,,,,,,192.5,-215,215,,215,215,Canada,1
Dalibor Ilijić,M,D,Multi-ply,,O,90.4,100,,,,,,,,,,,230,250,-270,,250,250,Serbia,1
Marcos Martinez,M,D,Multi-ply,40,M1,98.2,100,,,,,,,,,,,150,,,,150,150,Argentina,1
Ivan Giňovský,M,D,Multi-ply,48,M2,93.1,100,,,,,,,,,,,190,-220.5,,,190,190,Slovakia,1
Mikhail Grinko,M,D,Multi-ply,37,O,104.9,110,,,,,,,,,,,260,280,300,,300,300,Russia,1
Dominique Dufour,M,D,Multi-ply,33,O,102,110,,,,,,,,,,,230,242.5,250,,250,250,France,2
Ľubomír Trstenský,M,D,Multi-ply,40,M1,109.3,110,,,,,,,,,,,225,230,-246,,230,230,Slovakia,1
Charles Driscoll,M,D,Multi-ply,54,M3,106.7,110,,,,,,,,,,,272.5,305,,,305,305,USA,1
Valeriy Akentyev,M,D,Multi-ply,57,M4,100.3,110,,,,,,,,,,,180,200,215,220,215,215,Russia,1
Ivars Cīrulis,M,D,Multi-ply,35,O,115.3,125,,,,,,,,,,,320,350,361,-370,361,361,Latvia,1
Jani Toivo Kristian Ihalainen,M,D,Multi-ply,40,M1,118.1,125,,,,,,,,,,,200,-250,,,200,200,Finland,1
Ric Duncan,M,D,Multi-ply,62,M5,120.8,125,,,,,,,,,,,247.5,272.5,-280,,272.5,272.5,USA,1
Gatis Roze,M,D,Multi-ply,24,O,131.1,140,,,,,,,,,,,300,352.5,362.5,,362.5,362.5,Latvia,1
Sergey Tymchenko,M,D,Multi-ply,45,M2,126.1,140,,,,,,,,,,,260,,,,260,260,Kazakhstan,1
Freyded Rankyn Bejerano,M,D,Multi-ply,39,O,193.9,140+,,,,,,,,,,,300,,,,300,300,Spain,1
Neea Räisänen,F,SBD,Multi-ply,22,J,60,60,130,140,150,165,150,80,85,87.5,,87.5,130,145,155,168,155,392.5,Finland,1
Maryana Soltanova,F,SBD,Multi-ply,30,O,69.2,75,125,135,145,,145,90,95,-100,,95,140,150,-160,,150,390,Ukraine,1
Anna McCloskey,F,SBD,Multi-ply,22,J,82.5,82.5,270,287.5,-295,,287.5,150,-167.5,-167.5,,150,207.5,217.5,-230,,217.5,655,USA,1
Jodie Reynolds,F,SBD,Multi-ply,53,M3,78.5,82.5,170,185,,,185,100,,,,100,150,-170,-170,,150,435,USA,1
Emily Knauth,F,SBD,Multi-ply,28,O,85.8,90,140,147.5,-155,,147.5,80,87.5,-95,,87.5,120,130,-135,,130,365,Australia,1
Jonathan Bar,M,SBD,Multi-ply,19,T3,58.6,60,135,142.5,-147.5,,142.5,85,90,-92.5,,90,165,172.5,-177.5,,172.5,405,France,1
John Dieter,M,SBD,Multi-ply,59,M4,59,60,180,-230,-230,,180,135,145,,,145,210,225,,,225,550,France,1
Gary Bobrovitz,M,SBD,Multi-ply,63,M5,64,67.5,172.5,188,-192.5,-192.5,188,132.5,135,140,142.5,140,165,172.5,177.5,-193,177.5,505.5,Canada,1
Tyrone McNamara,M,SBD,Multi-ply,26,O,74.8,75,260,-275,280,,280,160,170,180,,180,210,222.5,-227.5,,222.5,682.5,Ireland,1
Gary Reichert,M,SBD,Multi-ply,55,M4,71.1,75,205,232.5,,,232.5,-140,140,,,140,210,240,-262.5,,240,612.5,USA,1
Frazer Munnery,M,SBD,Multi-ply,23,O,80.8,82.5,290,310,325,,325,-200,200,-210,,200,250,275,-285,,275,800,UK,1
Frédéric Parmentier,M,SBD,Multi-ply,39,O,79.4,82.5,180,200,-220,,200,120,125,130,,130,160,180,-200,,180,510,France,2
Sean Baker,M,SBD,Multi-ply,44,M1,81.4,82.5,250,275,-290,,275,150,167.5,-187.5,,167.5,240,-255,,,240,682.5,USA,1
Mikhail Kislyanskikh,M,SBD,Multi-ply,40,M1,77.9,82.5,250,-270,-280,,250,-160,-160,-160,,,-220,,,,,,Russia,DQ
Gérard Dufour,M,SBD,Multi-ply,66,M6,77.1,82.5,150,170,180,,180,105,115,-120,,115,180,202.5,215,,215,510,France,1
Max Reichert,M,SBD,Multi-ply,18,T3,89.8,90,305,-320,-332.5,,305,215,-227.5,227.5,240,227.5,200,220,230,,230,762.5,USA,1
Daniel Sánchez,M,SBD,Multi-ply,41,O,89,90,320,350,360,,360,220,240,250,,250,230,272.5,290,,290,900,Argentina,1
Anthony Cross,M,SBD,Multi-ply,35,O,88,90,285,310,-322.5,,310,-175,175,185,,185,290,302.5,-312.5,,302.5,797.5,UK,2
Daniel Russell #2,M,SBD,Multi-ply,25,O,90,90,300,315,-325,,315,200,-210,210,,210,230,260,-290,,260,785,UK,3
Fabrice Logli,M,SBD,Multi-ply,25,O,89.4,90,230,250,-270,,250,180,200,-210,,200,240,-255,272.5,,272.5,722.5,France,4
Matthew Warr,M,SBD,Multi-ply,36,O,87.9,90,265,290,310,,310,142.5,150,157.5,,157.5,240,252.5,-265,,252.5,720,USA,5
Gérard Ivars,M,SBD,Multi-ply,49,M2,89.1,90,240,260,280,,280,140,155,-165,,155,215,225,-235,,225,660,France,1
John Hare,M,SBD,Multi-ply,54,M3,89.1,90,275,305,-320,,305,195,215,237.5,,237.5,235,255,275,,275,817.5,USA,1
Adrian Tucker,M,SBD,Multi-ply,53,M3,86.8,90,280,300,310,,310,180,190,195,,195,250,-275,-275,,250,755,UK,2
Michal Červinka,M,SBD,Multi-ply,55,M4,89.9,90,230,245,-260,,245,130,140,-150,,140,220,230,-240,,230,615,Slovakia,1
Martin Hurdálek,M,SBD,Multi-ply,37,O,96.5,100,300,-320,-320,,300,220,240,250,,250,220,240,250,,250,800,Czechia,1
Cameron Fields,M,SBD,Multi-ply,30,O,98.3,100,295,320,-327.5,,320,187.5,-205,-205,,187.5,250,275,285,,285,792.5,USA,2
Brandon McKee,M,SBD,Multi-ply,27,O,99.8,100,250,275,295,,295,175,185,195,,195,232.5,250,265,,265,755,USA,3
Dominique Dufour,M,SBD,Multi-ply,33,O,100,100,-310,-310,-310,,,,,,,,,,,,,,France,DQ
Marcos Martinez,M,SBD,Multi-ply,40,M1,98.1,100,150,,,,150,175,,,,175,150,,,,150,475,Argentina,1
Michel Logli,M,SBD,Multi-ply,49,M2,98.6,100,240,260,-270,,260,200,-220,-220,,200,220,240,-250,,240,700,France,1
Robert Graham #1,M,SBD,Multi-ply,50,M3,98.4,100,240,260,280,,280,145,152.5,160,,160,220,225,230,,230,670,UK,1
Libor Hurdálek,M,SBD,Multi-ply,61,M5,97.9,100,230,250,-260,,250,145,155,-165,,155,200,215,225,,225,630,Czechia,1
Rudy Kadlub,M,SBD,Multi-ply,66,M6,99.6,100,227.5,250,-272.5,,250,112.5,197.5,207.5,,207.5,205,-242.5,,,205,662.5,USA,1
Roy Eriksen,M,SBD,Multi-ply,72,M7,96.6,100,192.5,-207.5,220,,220,142.5,-160,-160,,142.5,175,185,192.5,,192.5,555,USA,1
Cole Morgan,M,SBD,Multi-ply,18,T3,104.6,110,-290,-300,310,,310,145,160,172.5,,172.5,230,-242.5,242.5,,242.5,725,USA,1
Jimmie Pacifico,M,SBD,Single-ply,27,O,107.7,110,-377.5,377.5,-400,,377.5,292.5,310,315,,315,332.5,347.5,-352.5,,347.5,1040,USA,1
Chris Pappillion,M,SBD,Single-ply,35,O,109.5,110,370,-400,400,,400,265,272.5,277.5,,277.5,307.5,-327.5,-365,,307.5,985,USA,2
Andrew Saunders,M,SBD,Multi-ply,48,M2,105.8,110,230,,,,230,230,,,,230,240,,,,240,700,UK,1
Adam Wade,M,SBD,Multi-ply,51,M3,105.2,110,300,320,330,,330,175,185,195,,195,260,275,285,,285,810,USA,1
Ján Velgos,M,SBD,Multi-ply,14,T1,110.8,125,225,235,250,,250,182.5,190,195,200,195,175,185,-190,,185,630,Slovakia,1
Seth Albersworth,M,SBD,Multi-ply,21,J,123.2,125,410,-435,-435,,410,250,,,,250,250,,,,250,910,Canada,1
Mike Webber,M,SBD,Multi-ply,45,M2,122.1,125,-420,420,-455,,420,275,-302.5,302.5,,302.5,280,305,-325,,305,1027.5,Canada,1
Frank Phillips #1,M,SBD,Multi-ply,46,M2,113.6,125,272.5,305,330,,330,195,215,222.5,,222.5,250,272.5,287.5,,287.5,840,USA,2
Eric Bar,M,SBD,Multi-ply,46,M2,123.8,125,245,255,-262.5,,255,225,-230,,,225,255,270,-275,,270,750,France,3
Gregg Damminga,M,SBD,Multi-ply,,M3,124.4,125,-290,-290,-290,,,,,,,,,,,,,,USA,DQ
Gary Emrich,M,SBD,Multi-ply,46,M2,135.4,140,307.5,317.5,337.5,,337.5,215,235,-245,,235,282.5,300,-317.5,,300,872.5,USA,1
Franck Loup,M,SBD,Multi-ply,47,M2,126.3,140,280,300,-320,,300,155,165,,,165,230,250,265,,265,730,France,2
Eddie Bustillos,M,SBD,Multi-ply,51,M3,130.4,140,-345,-345,-345,,,,,,,,,,,,,,USA,DQ
Chris Thompson,M,SBD,Multi-ply,42,M1,141.6,140+,-300,300,,,300,225,-240,240,,240,240,,,,240,780,USA,1
