Place,Name,BirthYear,Division,Country,BodyweightKg,WeightClassKg,Bench1Kg,Bench2Kg,Bench3Kg,Best3BenchKg,TotalKg,Event,Equipment,BirthDate,Sex
1,Baigalmaa Jamiyan,1995,Open,Mongolia,42.5,47,35,40,-45,40,40,B,Single-ply,,F
1,Miyabi Kikuchi,1998,Open,Japan,50.9,52,110,120,-130.5,120,120,B,Single-ply,,F
2,Nyamsuren Enkhjargal,1995,Open,Mongolia,51.64,52,65,-75,-75,65,65,B,Single-ply,,F
1,Altansuvd Badam,1975,Open,Mongolia,55.92,57,100,110,115,115,115,B,Single-ply,,F
1,Orkhontuul Ochirbat,1997,Open,Mongolia,64,69,-105,-105,105,105,105,B,Single-ply,,F
1,Maral Batgerel,1997,Open,Mongolia,74.15,76,105,-112.5,115,115,115,B,Single-ply,,F
2,Myagmarsuren Nyamsuren,1986,Open,Mongolia,69.05,76,70,72.5,-90,72.5,72.5,B,Single-ply,,F
1,Alevtina Nikolaeva,1998,Open,Kazakhstan,82.6,84,60,70,80,80,80,B,Single-ply,,F
1,Marina Altaibaeva,1973,Open,Kazakhstan,118.7,84+,-50,50,-55,50,50,B,Single-ply,,F
1,Ninel Ablayeva,2005,Sub-Juniors,Kazakhstan,55.7,57,55,60,-67.5,60,60,B,Single-ply,,F
2,Lkhamjin Buyandelger,2008,Sub-Juniors,Mongolia,56.96,57,-47.5,47.5,-65,47.5,47.5,B,Single-ply,,F
1,Sumiyasuren Ganbaatar,2005,Sub-Juniors,Mongolia,62.2,63,40,60,-70,60,60,B,Single-ply,,F
1,Shaimaa Sukar,2007,Sub-Juniors,Syria,68.05,69,70,77.5,-82.5,77.5,77.5,B,Single-ply,,F
1,Khaliunaa Chuluunbat,2005,Sub-Juniors,Mongolia,75.45,76,85,95,100,100,100,B,Single-ply,,F
1,Naranzaya Nyamdash,2003,Juniors,Mongolia,57,57,70,-80,,70,70,B,Single-ply,,F
1,Diyora Saitmuratova,2001,Juniors,Kazakhstan,72.8,76,50,60,65,65,65,B,Single-ply,,F
1,Ganchimeg Chuluun,1974,Masters 1,Mongolia,51.25,52,50,55,62.5,62.5,62.5,B,Single-ply,,F
1,Sarnai Tumurbaatar,1981,Masters 1,Mongolia,72.75,76,85,92.5,-97.5,92.5,92.5,B,Single-ply,,F
1,Bayarjargal Nyamsuren,1981,Masters 1,Mongolia,76.35,84,75,77.5,85,85,85,B,Single-ply,,F
1,Nicey K L,1968,Masters 2,India,50.06,52,25,27.5,-30,27.5,27.5,B,Single-ply,,F
1,Baigalmaa Jamiyan,1995,Open,Mongolia,42.2,47,35,37.5,-40,37.5,37.5,B,Raw,,F
2,Demberel Magvan,1997,Open,Mongolia,46.56,47,30,35,-40,35,35,B,Raw,,F
1,Mariam Abbas,1987,Open,UAE,50.02,52,62.5,67.5,70,70,70,B,Raw,1987-01-31,F
2,Narantsetseg Erdenesukh,1985,Open,Mongolia,50.4,52,-62.5,62.5,-70,62.5,62.5,B,Raw,,F
3,Nyamsuren Enkhjargal,1995,Open,Mongolia,51.52,52,55,-65,-65,55,55,B,Raw,,F
1,Anujin Narantuya,2000,Open,Mongolia,56.96,57,80,82.5,-90,82.5,82.5,B,Raw,,F
2,Altansuvd Badam,1975,Open,Mongolia,56.63,57,80,-87.5,-92.5,80,80,B,Raw,,F
1,Mariya Verkhovykh,1984,Open,Kazakhstan,62.2,63,80,85,-92.5,85,85,B,Raw,,F
2,Veronika Yakusheva,2005,Open,Kazakhstan,60.5,63,30,35,37.5,37.5,37.5,B,Raw,,F
1,Amartsengel Batkhishig,1989,Open,Mongolia,68.4,69,67.5,70,72.5,72.5,72.5,B,Raw,,F
2,Uranbaigali Tuvnaimanjin,1997,Open,Mongolia,66.45,69,55,-62.5,-62.5,55,55,B,Raw,,F
1,Myagmarsuren Nyamsuren,1986,Open,Mongolia,69.05,76,65,70,75,75,75,B,Raw,,F
2,Amna Al Mahri,1987,Open,UAE,71.25,76,57.5,60,-67.5,60,60,B,Raw,,F
3,Shinechimeg Bat-Erdene,1985,Open,Mongolia,75.15,76,45,50,-62.5,50,50,B,Raw,,F
1,Dulmaa Bazarsad,1987,Open,Mongolia,82.35,84,95,-97.5,-107.5,95,95,B,Raw,,F
1,Fatima Al Qerain,1986,Open,UAE,104.05,84+,80,85,-92.5,85,85,B,Raw,,F
2,Oyun Sukhee,1983,Open,Mongolia,92.5,84+,60,70,-85,70,70,B,Raw,,F
3,Marina Altaibaeva,1973,Open,Kazakhstan,117.75,84+,50,52.5,55,55,55,B,Raw,,F
1,Ninel Ablayeva,2005,Sub-Juniors,Kazakhstan,53.9,57,45,50,-55,50,50,B,Raw,,F
1,Michidmaa Altangerel,2006,Sub-Juniors,Mongolia,61.7,63,50,55,-57.5,55,55,B,Raw,,F
2,Sumiyasuren Ganbaatar,2005,Sub-Juniors,Mongolia,62.15,63,40,45,52.5,52.5,52.5,B,Raw,,F
1,Shaimaa Sukar,2007,Sub-Juniors,Syria,67.5,69,70,75,80,80,80,B,Raw,,F
2,Michidmaa Dagvadorj,2004,Sub-Juniors,Mongolia,67.55,69,57.5,-65,-65,57.5,57.5,B,Raw,,F
1,Barno Dzhumabaeva,2007,Sub-Juniors,Kazakhstan,75.2,76,115,120.5,,120.5,120.5,B,Raw,,F
1,Sarvinoz Nassiriddinova,2006,Sub-Juniors,Kazakhstan,108.1,84+,65,70,-75,70,70,B,Raw,,F
1,Alena Gladkova,2001,Juniors,Kazakhstan,52,52,75,80,85,85,85,B,Raw,,F
1,Naranzaya Nyamdash,2003,Juniors,Mongolia,57,57,60,-67.5,-67.5,60,60,B,Raw,,F
1,Tsenguun Batsukh,2002,Juniors,Mongolia,62.05,63,65,70,75,75,75,B,Raw,,F
2,Batkhishig Basanjav,2000,Juniors,Mongolia,62.13,63,62.5,67.5,72.5,72.5,72.5,B,Raw,,F
1,Oyunjargal Oyunbold,2003,Juniors,Mongolia,75.5,76,80,-87.5,-87.5,80,80,B,Raw,,F
1,Iroda Abdyrova,2001,Juniors,Kazakhstan,78.3,84,85,92.5,-105,92.5,92.5,B,Raw,,F
1,Ganchimeg Chuluun,1974,Masters 1,Mongolia,51.4,52,45,50,-55,50,50,B,Raw,,F
1,Battsengel Ayurzana,1982,Masters 1,Mongolia,62.2,63,55,-65,-65,55,55,B,Raw,,F
1,Enkhtuvshin Khulgana,1973,Masters 1,Mongolia,66.9,69,40,45,-47.5,45,45,B,Raw,,F
1,Sarnai Tumurbaatar,1981,Masters 1,Mongolia,76.2,84,67.5,70,-72.5,70,70,B,Raw,,F
1,Nicey K L,1968,Masters 2,India,49.28,52,25,27.5,30,30,30,B,Raw,,F
1,Bat-Amgalan Purevsuren,1987,Open,Mongolia,58.2,59,145,150,155,155,155,B,Raw,,M
2,Byambakhishig Lkhagvasuren,1992,Open,Mongolia,59,59,110,130,-152.5,130,130,B,Raw,,M
1,Davaatseren Manaljav,1993,Open,Mongolia,64.8,66,137.5,142.5,147.5,147.5,147.5,B,Raw,,M
2,Nanzaddorj Erdenebold,1994,Open,Mongolia,65.3,66,137.5,142.5,-147.5,142.5,142.5,B,Raw,,M
1,Kosei Yokoyama,1996,Open,Japan,71.9,74,200,225.5,227,227,227,B,Raw,,M
2,Ganbold Gerelbadrakh,1990,Open,Mongolia,72.7,74,180,190,-200,190,190,B,Raw,,M
3,Byamba-Ochir Batbold,1983,Open,Mongolia,74,74,155,165,-170,165,165,B,Raw,,M
1,Khurelbaatar Sodnomdorj,1993,Open,Mongolia,81.65,83,180,190,195,195,195,B,Raw,,M
2,Ariunbold Ganbaatar,1991,Open,Mongolia,80.75,83,185,190,-195,190,190,B,Raw,,M
3,Yosuke Horiguchi,1993,Open,Japan,81.3,83,160,-180,-192.5,160,160,B,Raw,,M
1,Vyacheslav Tsoy,1984,Open,Kazakhstan,92.45,93,212.5,220,-227.5,220,220,B,Raw,,M
2,Orgilbold Galdan,1986,Open,Mongolia,89.5,93,210,217.5,-225,217.5,217.5,B,Raw,,M
3,Yasuki Yamashita,1991,Open,Japan,92.3,93,187.5,192.5,-197.5,192.5,192.5,B,Raw,,M
4,Battumur Khumuugul,1974,Open,Mongolia,91.55,93,185,190,-195,190,190,B,Raw,,M
1,Denis Rybka,1985,Open,Kazakhstan,104.85,105,205,-212.5,215,215,215,B,Raw,,M
2,Ilya Maslov,1989,Open,Kazakhstan,104.5,105,202.5,207.5,-212.5,207.5,207.5,B,Raw,,M
3,Igor Trifonov,1989,Open,Kazakhstan,103.5,105,190,200,-212.5,200,200,B,Raw,,M
4,Batbold Ganbold,1989,Open,Mongolia,104.2,105,200,-205,-207.5,200,200,B,Raw,,M
1,Sodnompiljee Enkhbayar,1985,Open,Mongolia,107.7,120,240,245,,245,245,B,Raw,,M
2,Dmitriy Li,1991,Open,Kazakhstan,118.8,120,220,-242.5,,220,220,B,Raw,,M
3,Tuvshintugs Danzan,1984,Open,Mongolia,120,120,180,,,180,180,B,Raw,,M
1,Shirin Bolkovadze,1992,Open,Kazakhstan,131.9,120+,212.5,217.5,222.5,222.5,222.5,B,Raw,,M
2,Khadbaatar Buyandalai,1990,Open,Mongolia,147.15,120+,212.5,-217.5,-220,212.5,212.5,B,Raw,,M
3,Battuvshin Batmunkh,1995,Open,Mongolia,130.8,120+,200,-210,-210,200,200,B,Raw,,M
1,Alisher Zaitov,2006,Sub-Juniors,Kazakhstan,52,53,90,97.5,-102.5,97.5,97.5,B,Raw,,M
2,Polat Temirov,2007,Sub-Juniors,Kazakhstan,51.7,53,50,60,70,70,70,B,Raw,,M
1,Jigmed Davaa-Ochir,2005,Sub-Juniors,Mongolia,58.3,59,110,112.5,,112.5,112.5,B,Raw,,M
1,Arman Toilybay,2006,Sub-Juniors,Kazakhstan,63.9,66,95,105,115,115,115,B,Raw,,M
2,Erdenebat Battsengel,2005,Sub-Juniors,Mongolia,63.4,66,75,-85,85,85,85,B,Raw,,M
3,Ganbold Baatar,2005,Sub-Juniors,Mongolia,65.6,66,85,-92.5,-92.5,85,85,B,Raw,,M
1,Ankhbaatar Munkhjargal,2004,Sub-Juniors,Mongolia,73.7,74,115,120,125,125,125,B,Raw,,M
1,Otgonbayar Tsogbayar,2004,Sub-Juniors,Mongolia,82.05,83,50,60,-105,60,60,B,Raw,,M
1,Yegor Oleinikov,2005,Sub-Juniors,Kazakhstan,90.75,93,105,115,-120,115,115,B,Raw,,M
1,Rashed Ali Essa,2005,Sub-Juniors,UAE,102.55,105,110,120,-130,120,120,B,Raw,,M
1,Otgon-Erdene Lonjidjargal,2001,Juniors,Mongolia,58.9,59,105,-110,110,110,110,B,Raw,,M
2,Uuganbayar Munkhbayar,2003,Juniors,Mongolia,58.9,59,-90,90,-107.5,90,90,B,Raw,,M
1,Tomoharu Ohira,2000,Juniors,Japan,60.6,66,135,140,150,150,150,B,Raw,,M
2,Altansukh Jargalsaikhan,2001,Juniors,Mongolia,64.6,66,-130,130,135,135,135,B,Raw,,M
3,Batnyam Dugarsuren,2000,Juniors,Mongolia,65.7,66,130,-132.5,-137.5,130,130,B,Raw,,M
1,Majid Alredha,2001,Juniors,UAE,73.7,74,160,167.5,-178,167.5,167.5,B,Raw,,M
2,Baljinnyam Munkh-Ochir,2001,Juniors,Mongolia,71.6,74,130,137.5,-145,137.5,137.5,B,Raw,,M
1,Tserenbat Chuluunbat,2000,Juniors,Mongolia,81.5,83,150,-155,-155,150,150,B,Raw,,M
2,Namnansuren Lkhagvasuren,1999,Juniors,Mongolia,83,83,-145,145,-157.5,145,145,B,Raw,,M
1,Davaadalai Divaabaljir,2000,Juniors,Mongolia,94.5,105,125,-140,-140,125,125,B,Raw,,M
1,Andrey Altaybayev,2003,Juniors,Kazakhstan,112.2,120,110,125,-135,125,125,B,Raw,,M
1,Abdullah Hussein Alhammadi,2001,Juniors,UAE,150,120+,70,72.5,95,95,95,B,Raw,,M
1,Odon Bayaraa,1980,Masters 1,Mongolia,64.6,66,130,135,,135,135,B,Raw,,M
DQ,Tserensodnom Alyeksandr,1973,Masters 1,Mongolia,66,66,-125,-125,-125,,,B,Raw,,M
1,Batsaikhan Baljinnyam,1982,Masters 1,Mongolia,72,74,140,150,-155,150,150,B,Raw,,M
2,Jamyan Lkhagva,1978,Masters 1,Mongolia,69.2,74,110,130,-150,130,130,B,Raw,,M
1,Faisal Alzaabi,1979,Masters 1,UAE,80.5,83,167.5,175,180,180,180,B,Raw,,M
2,Gantugs Ganjuur,1978,Masters 1,Mongolia,82,83,165,167.5,-172.5,167.5,167.5,B,Raw,,M
3,Altankhuyag Damdinsuren,1974,Masters 1,Mongolia,81.6,83,160,-170,-170,160,160,B,Raw,,M
1,Otgondalai Tsend-Ayush,1981,Masters 1,Mongolia,92.45,93,180,192.5,-197.5,192.5,192.5,B,Raw,,M
2,Enkhnasan Purevjav,1982,Masters 1,Mongolia,92.7,93,170,-192.5,-192.5,170,170,B,Raw,,M
1,Natsagdorj Sereenendorj,1979,Masters 1,Mongolia,104.3,105,190,197.5,205,205,205,B,Raw,,M
2,Baldantseren Lantuu,1974,Masters 1,Mongolia,104.8,105,195,-205,205,205,205,B,Raw,,M
3,Yerlan Sarsenov,1977,Masters 1,Kazakhstan,104.1,105,190,-197.5,-197.5,190,190,B,Raw,,M
4,Mohammed Alkhanbouli,1977,Masters 1,UAE,103.6,105,160,175,-200,175,175,B,Raw,,M
1,Batzul Shagdarsuren,1982,Masters 1,Mongolia,117.6,120,190,192.5,200,200,200,B,Raw,,M
2,Hash-Erdene Batbold,1973,Masters 1,Mongolia,105.5,120,160,190,-202.5,190,190,B,Raw,,M
1,Ankhbayar Damdin,1979,Masters 1,Mongolia,150,120+,185,195,200,200,200,B,Raw,,M
1,Amarsanaa Khuujii,1972,Masters 2,Mongolia,73,74,110,120,130,130,130,B,Raw,,M
1,Sharipkhan Sadvakasov,1969,Masters 2,Kazakhstan,82.55,83,140,142.5,-145,142.5,142.5,B,Raw,,M
2,Purevdorj Purevsukh,1971,Masters 2,Mongolia,83,83,130,135,-145,135,135,B,Raw,,M
3,Baatar Nasanbuyan,1971,Masters 2,Mongolia,83,83,125,-132.5,-137.5,125,125,B,Raw,,M
1,Enkhjargal Sodov,1971,Masters 2,Mongolia,93,93,-140,140,150,150,150,B,Raw,,M
2,Kairat Nurmukanov,1966,Masters 2,Kazakhstan,92.8,93,127.5,135,140,140,140,B,Raw,,M
3,Batbayar Ijiidaa,1972,Masters 2,Mongolia,90.9,93,105,,,105,105,B,Raw,,M
1,Teskhuu Ichinnorov,1971,Masters 2,Mongolia,101.7,105,170,175,180,180,180,B,Raw,,M
2,Otgonbayar Nyamsuren,1972,Masters 2,Mongolia,102.95,105,125,135,,135,135,B,Raw,,M
1,Ziad Mohamad,1972,Masters 2,Syria,107.65,120,110,120,-125,120,120,B,Raw,,M
1,Toshiyuki Sato,1971,Masters 2,Japan,124.95,120+,142.5,152.5,160,160,160,B,Raw,,M
2,Erdenetsogt Lkhagvasuren,1970,Masters 2,Mongolia,122.6,120+,140,150,-155,150,150,B,Raw,,M
1,Bogd-Ochir Sugar,1958,Masters 3,Mongolia,65,66,60,70,,70,70,B,Raw,,M
1,Bayar Purev,1958,Masters 3,Mongolia,72.1,74,50,80,-95,80,80,B,Raw,,M
1,Bat-Erdene Shagdarsuren,1959,Masters 3,Mongolia,77.1,83,110,117.5,-125,117.5,117.5,B,Raw,,M
1,Dorj Zundui,1960,Masters 3,Mongolia,90.9,93,115,-122.5,-122.5,115,115,B,Raw,,M
1,Tarou Yamamoto,1950,Masters 4,Japan,62.2,66,105,113.5,-115,113.5,113.5,B,Raw,,M
2,Perenlei Shagdar,1951,Masters 4,Mongolia,63.8,66,60,70,-80,70,70,B,Raw,,M
1,Hideyuki Nobuhara,1952,Masters 4,Japan,73.45,74,120,126,135,135,135,B,Raw,,M
2,Namkhaidorj Dash,1952,Masters 4,Mongolia,70,74,-100,-100,100,100,100,B,Raw,,M
1,Maamchuluun Tseveendorj,1946,Masters 4,Mongolia,78.7,83,100,107.5,-112.5,107.5,107.5,B,Raw,,M
1,Bat-Amgalan Purevsuren,1987,Open,Mongolia,58.22,59,190,200,-210,200,200,B,Single-ply,,M
2,Byambakhishig Lkhagvasuren,1992,Open,Mongolia,58.92,59,100,,-165,100,100,B,Single-ply,,M
DQ,Toshihiko Noda,1979,Open,Japan,58.46,59,-195,-195,-195,,,B,Single-ply,,M
1,Toirzhan Marif,1996,Open,Kazakhstan,65.95,66,-160,162.5,177.5,177.5,177.5,B,Single-ply,,M
2,Amartaivan Amgalanbaatar,1989,Open,Mongolia,63.7,66,-175,175,-180,175,175,B,Single-ply,,M
3,Janlav Batsukh,1992,Open,Mongolia,62.7,66,145,160,165,165,165,B,Single-ply,,M
1,Hiroshi Ishikawa,1997,Open,Japan,73.7,74,237.5,-250,-257.5,237.5,237.5,B,Single-ply,,M
2,Amarbat Batmagnai,1990,Open,Mongolia,73.7,74,185,200,-240,200,200,B,Single-ply,,M
3,Uurtsaikh Erdenesuren,1988,Open,Mongolia,73.15,74,160,180,-215,180,180,B,Single-ply,,M
1,Oleg Butenko,1983,Open,Kazakhstan,79.7,83,255,265,275,275,275,B,Single-ply,,M
2,Dulguun Batbold,1997,Open,Mongolia,82.95,83,-250,-250,250,250,250,B,Single-ply,,M
1,Yasuki Yamashita,1991,Open,Japan,92.25,93,280,282.5,-297.5,282.5,282.5,B,Single-ply,,M
2,Gansukh Batsukh,1988,Open,Mongolia,89.2,93,-277.5,280,-295,280,280,B,Single-ply,,M
3,Battumur Khumuugul,1974,Open,Mongolia,92.7,93,265,-280,-285,265,265,B,Single-ply,,M
1,Ilya Maslov,1989,Open,Kazakhstan,104.25,105,-320,320,-346.5,320,320,B,Single-ply,,M
2,Byambasuren Bayarsaikhan,1985,Open,Mongolia,102.7,105,-302.5,302.5,-320,302.5,302.5,B,Single-ply,,M
3,Igor Trifonov,1989,Open,Kazakhstan,102.6,105,300,-310,-320,300,300,B,Single-ply,,M
1,Saifolla Tilyeubyerd,1987,Open,Mongolia,118,120,280,292.5,302.5,302.5,302.5,B,Single-ply,,M
2,Dmitriy Li,1991,Open,Kazakhstan,118.85,120,200,282.5,300,300,300,B,Single-ply,,M
DQ,Chimedtseren Bataa,1981,Open,Mongolia,118.4,120,-340,-340,-340,,,B,Single-ply,,M
1,Batzorig Tsend,1993,Open,Mongolia,142.7,120+,-270,270,295,295,295,B,Single-ply,,M
DQ,Erdenekhuu Tumurbaatar,1985,Open,Mongolia,120.1,120+,-260,-265,-265,,,B,Single-ply,,M
1,Mansurbek Mominov,2006,Sub-Juniors,Kazakhstan,47.8,53,60,70,-75,70,70,B,Single-ply,,M
1,Tokhirzhon Nigmanov,2005,Sub-Juniors,Kazakhstan,57.92,59,70,80,90,90,90,B,Single-ply,,M
1,Bayarbayasgalant Tsolmon,2004,Sub-Juniors,Mongolia,65,66,90,100,120,120,120,B,Single-ply,,M
1,Shavkatbek Gapurzhanov,2004,Sub-Juniors,Kazakhstan,72.55,74,145,152.5,162.5,162.5,162.5,B,Single-ply,,M
2,Ankhbaatar Munkhjargal,2004,Sub-Juniors,Mongolia,72.1,74,100,150,-160,150,150,B,Single-ply,,M
1,Sodbaatar Byambajargal,2004,Sub-Juniors,Mongolia,82.2,83,140,160,-180,160,160,B,Single-ply,,M
1,Erkhemjargal Byambatugs,2004,Sub-Juniors,Mongolia,91.7,93,140,150,160,160,160,B,Single-ply,,M
1,Dagvadorj Davaadorj,2007,Sub-Juniors,Mongolia,104.9,105,80,90,100,100,100,B,Single-ply,,M
1,Otgon-Erdene Lonjidjargal,2001,Juniors,Mongolia,59,59,130,140,-160,140,140,B,Single-ply,,M
2,Uchralbold Baatarkhuu,1999,Juniors,Mongolia,59,59,122.5,130,-140,130,130,B,Single-ply,,M
1,Batnyam Dugarsuren,2000,Juniors,Mongolia,65.55,66,130,-140,,130,130,B,Single-ply,,M
1,Baljinnyam Munkh-Ochir,2001,Juniors,Mongolia,72.2,74,-120,120,167.5,167.5,167.5,B,Single-ply,,M
1,Bayartogtokh Batzaya,2006,Juniors,Mongolia,79.3,83,80,95,100,100,100,B,Single-ply,,M
DQ,Sukhbat Sukhbaatar,1999,Juniors,Mongolia,82.2,83,-235,-235,-235,,,B,Single-ply,,M
1,Azizbek Amanov,2001,Juniors,Kazakhstan,103.55,105,170,180,190,190,190,B,Single-ply,,M
1,Andrey Altaybayev,2003,Juniors,Kazakhstan,102.2,105,110,125,135,135,135,B,Single-ply,,M
1,Tserensodnom Alyeksandr,1973,Masters 1,Mongolia,65.5,66,100,,,100,100,B,Single-ply,,M
1,Merwin Torres,1974,Masters 1,Philippines,72.7,74,150,157.5,-162.5,157.5,157.5,B,Single-ply,,M
2,Munkhjargal Tavanjin,1977,Masters 1,Mongolia,72.7,74,100,102.5,130,130,130,B,Single-ply,,M
3,Bayasgalan Sukhbaatar,1977,Masters 1,Mongolia,73.2,74,130,-152.5,-165,130,130,B,Single-ply,,M
1,Munkhtuul Damba,1974,Masters 1,Mongolia,82.4,83,215,222.5,-227.5,222.5,222.5,B,Single-ply,,M
2,Takashi Goto,1976,Masters 1,Japan,80.15,83,207.5,215,-225,215,215,B,Single-ply,,M
3,Altankhuyag Damdinsuren,1974,Masters 1,Mongolia,81.4,83,190,210,-222.5,210,210,B,Single-ply,,M
1,Naranbaatar Badgaa,1975,Masters 1,Mongolia,92.1,93,210,-217.5,-217.5,210,210,B,Single-ply,,M
2,Munkhbaatar Baasandorj,1981,Masters 1,Mongolia,92.7,93,190,-212.5,-212.5,190,190,B,Single-ply,,M
1,Barkhasbaatar Lkhagvajav,1981,Masters 1,Mongolia,104.75,105,250,265,-267.5,265,265,B,Single-ply,,M
2,Uuganbayar Damdin,1976,Masters 1,Mongolia,104.3,105,250,262.5,-265,262.5,262.5,B,Single-ply,,M
3,Mohammed Alkhanbouli,1977,Masters 1,UAE,103.4,105,160,,,160,160,B,Single-ply,,M
1,Otgonbayar Ayush,1977,Masters 1,Mongolia,119.4,120,260,270,280,280,280,B,Single-ply,,M
2,Bayartugs Sanjsuren,1976,Masters 1,Mongolia,114.5,120,170,-277.5,-277.5,170,170,B,Single-ply,,M
1,Otgonbaatar Damdinbal,1975,Masters 1,Mongolia,127.05,120+,150,230,-270,230,230,B,Single-ply,,M
1,Amarsanaa Khuujii,1972,Masters 2,Mongolia,73.3,74,110,112.5,120,120,120,B,Single-ply,,M
1,Batbayar Gongorjav,1966,Masters 2,Mongolia,81.5,83,105,115,120,120,120,B,Single-ply,,M
2,Baatar Nasanbuyan,1971,Masters 2,Mongolia,82.5,83,120,-160,-160,120,120,B,Single-ply,,M
1,Batbayar Ijiidaa,1972,Masters 2,Mongolia,90.8,93,100,102.5,150,150,150,B,Single-ply,,M
1,Teskhuu Ichinnorov,1971,Masters 2,Mongolia,99.75,105,170,220,,220,220,B,Single-ply,,M
2,Otgonbayar Nyamsuren,1972,Masters 2,Mongolia,102.1,105,130,160,172.5,172.5,172.5,B,Single-ply,,M
1,Andrey Altaibaev,1972,Masters 2,Kazakhstan,112.15,120,210,225,-235,225,225,B,Single-ply,,M
2,Jargalsaikhan Lkhanaa,1968,Masters 2,Mongolia,116,120,135,-185,-227.5,135,135,B,Single-ply,,M
1,Erdenetsogt Lkhagvasuren,1970,Masters 2,Mongolia,124,120+,130,135,140,140,140,B,Single-ply,,M
1,Masato Hashimoto,1957,Masters 3,Japan,65.35,66,102.5,110,115,115,115,B,Single-ply,,M
1,Bat-Erdene Shagdarsuren,1959,Masters 3,Mongolia,76.5,83,110,130,135,135,135,B,Single-ply,,M
1,Perenlei Shagdar,1951,Masters 4,Mongolia,62.8,66,65,-67.5,-80,65,65,B,Single-ply,,M
1,Maamchuluun Tseveendorj,1946,Masters 4,Mongolia,78.1,83,100,125,-130,125,125,B,Single-ply,,M
